<?xml version="1.0" encoding="UTF-8" standalone="no"?>
<!DOCTYPE svg PUBLIC "-//W3C//DTD SVG 1.1//EN"
 "http://www.w3.org/Graphics/SVG/1.1/DTD/svg11.dtd">
<!-- Generated by graphviz version 2.40.1 (20161225.0304)
 -->
<!-- Title: dag Pages: 1 -->
<svg width="1341pt" height="2395pt"
 viewBox="0.00 0.00 1340.50 2395.00" xmlns="http://www.w3.org/2000/svg" xmlns:xlink="http://www.w3.org/1999/xlink">
<g id="graph0" class="graph" transform="scale(1 1) rotate(0) translate(4 2391)">
<title>dag</title>
<polygon fill="#ffffff" stroke="transparent" points="-4,4 -4,-2391 1336.5,-2391 1336.5,4 -4,4"/>
<!-- p0 -->
<g id="node1" class="node">
<title>p0</title>
<ellipse fill="#000000" stroke="#000000" cx="343.5" cy="-2192.2" rx="3.6" ry="3.6"/>
<text text-anchor="middle" x="289.9" y="-2199.6" font-family="Times,serif" font-size="14.00" fill="#000000">Channel.fromPath</text>
</g>
<!-- p1 -->
<g id="node2" class="node">
<title>p1</title>
<ellipse fill="none" stroke="#000000" cx="343.5" cy="-2119.6" rx="3.5" ry="3.5"/>
<text text-anchor="middle" x="327.5" y="-2126.9" font-family="Times,serif" font-size="14.00" fill="#000000">map</text>
</g>
<!-- p0&#45;&gt;p1 -->
<g id="edge1" class="edge">
<title>p0&#45;&gt;p1</title>
<path fill="none" stroke="#000000" d="M343.5,-2188.2967C343.5,-2178.1576 343.5,-2150.597 343.5,-2133.6256"/>
<polygon fill="#000000" stroke="#000000" points="347.0001,-2133.1754 343.5,-2123.1755 340.0001,-2133.1755 347.0001,-2133.1754"/>
</g>
<!-- p2 -->
<g id="node3" class="node">
<title>p2</title>
<ellipse fill="none" stroke="#000000" cx="343.5" cy="-2047.1" rx="3.5" ry="3.5"/>
<text text-anchor="middle" x="326.5" y="-2054.4" font-family="Times,serif" font-size="14.00" fill="#000000">view</text>
</g>
<!-- p1&#45;&gt;p2 -->
<g id="edge2" class="edge">
<title>p1&#45;&gt;p2</title>
<path fill="none" stroke="#000000" d="M343.5,-2115.7021C343.5,-2105.577 343.5,-2078.0543 343.5,-2061.1062"/>
<polygon fill="#000000" stroke="#000000" points="347.0001,-2060.6705 343.5,-2050.6706 340.0001,-2060.6706 347.0001,-2060.6705"/>
</g>
<!-- p3 -->
<g id="node4" class="node">
<title>p3</title>
<ellipse fill="none" stroke="#000000" cx="343.5" cy="-1988.6" rx="3.5" ry="3.5"/>
<text text-anchor="middle" x="329" y="-1995.9" font-family="Times,serif" font-size="14.00" fill="#000000">into</text>
</g>
<!-- p2&#45;&gt;p3 -->
<g id="edge3" class="edge">
<title>p2&#45;&gt;p3</title>
<path fill="none" stroke="#000000" d="M343.5,-2043.2617C343.5,-2035.0878 343.5,-2015.6199 343.5,-2002.2686"/>
<polygon fill="#000000" stroke="#000000" points="347.0001,-2002.2263 343.5,-1992.2263 340.0001,-2002.2263 347.0001,-2002.2263"/>
</g>
<!-- p49 -->
<g id="node5" class="node">
<title>p49</title>
<ellipse fill="none" stroke="#000000" cx="422.5" cy="-1901.6" rx="3.5" ry="3.5"/>
<text text-anchor="middle" x="395" y="-1908.9" font-family="Times,serif" font-size="14.00" fill="#000000">combine</text>
</g>
<!-- p3&#45;&gt;p49 -->
<g id="edge4" class="edge">
<title>p3&#45;&gt;p49</title>
<path fill="none" stroke="#000000" d="M346.8127,-1987.3402C356.4039,-1983.5386 384.5277,-1971.2819 400.5,-1952.6 409.8876,-1941.6198 415.8221,-1926.0252 419.1301,-1914.9773"/>
<polygon fill="#000000" stroke="#000000" points="422.5407,-1915.7708 421.7279,-1905.2072 415.7757,-1913.972 422.5407,-1915.7708"/>
<text text-anchor="middle" x="435" y="-1941.4" font-family="Times,serif" font-size="14.00" fill="#000000">refinputs</text>
</g>
<!-- p4 -->
<g id="node6" class="node">
<title>p4</title>
<ellipse fill="#000000" stroke="#000000" cx="343.5" cy="-1901.6" rx="1.8" ry="1.8"/>
</g>
<!-- p3&#45;&gt;p4 -->
<g id="edge5" class="edge">
<title>p3&#45;&gt;p4</title>
<path fill="none" stroke="#000000" d="M343.5,-1984.8617C343.5,-1972.6474 343.5,-1933.5558 343.5,-1913.5868"/>
<polygon fill="#000000" stroke="#000000" points="347.0001,-1913.5391 343.5,-1903.5391 340.0001,-1913.5391 347.0001,-1913.5391"/>
<text text-anchor="middle" x="371" y="-1941.4" font-family="Times,serif" font-size="14.00" fill="#000000">refinputs2</text>
</g>
<!-- p46 -->
<g id="node7" class="node">
<title>p46</title>
<ellipse fill="none" stroke="#000000" cx="210.5" cy="-1901.6" rx="40.0939" ry="18"/>
<text text-anchor="middle" x="210.5" y="-1897.9" font-family="Times,serif" font-size="14.00" fill="#000000">blastRef</text>
</g>
<!-- p3&#45;&gt;p46 -->
<g id="edge6" class="edge">
<title>p3&#45;&gt;p46</title>
<path fill="none" stroke="#000000" d="M340.2633,-1986.7107C331.3003,-1981.4607 305.4362,-1966.1869 284.5,-1952.6 269.7911,-1943.0544 253.7354,-1932.0612 240.35,-1922.7309"/>
<polygon fill="#000000" stroke="#000000" points="242.1799,-1919.7395 231.9806,-1916.8717 238.1654,-1925.474 242.1799,-1919.7395"/>
<text text-anchor="middle" x="312" y="-1941.4" font-family="Times,serif" font-size="14.00" fill="#000000">refinputs3</text>
</g>
<!-- p50 -->
<g id="node60" class="node">
<title>p50</title>
<ellipse fill="none" stroke="#000000" cx="422.5" cy="-1814.6" rx="27" ry="18"/>
<text text-anchor="middle" x="422.5" y="-1810.9" font-family="Times,serif" font-size="14.00" fill="#000000">map</text>
</g>
<!-- p49&#45;&gt;p50 -->
<g id="edge62" class="edge">
<title>p49&#45;&gt;p50</title>
<path fill="none" stroke="#000000" d="M422.5,-1897.8617C422.5,-1888.445 422.5,-1863.053 422.5,-1842.7647"/>
<polygon fill="#000000" stroke="#000000" points="426.0001,-1842.7321 422.5,-1832.7322 419.0001,-1842.7322 426.0001,-1842.7321"/>
</g>
<!-- p47 -->
<g id="node56" class="node">
<title>p47</title>
<ellipse fill="none" stroke="#000000" cx="209.5" cy="-1814.6" rx="64.189" ry="18"/>
<text text-anchor="middle" x="209.5" y="-1810.9" font-family="Times,serif" font-size="14.00" fill="#000000">parseBlast6Ref</text>
</g>
<!-- p46&#45;&gt;p47 -->
<g id="edge58" class="edge">
<title>p46&#45;&gt;p47</title>
<path fill="none" stroke="#000000" d="M210.2928,-1883.5735C210.1574,-1871.7918 209.9777,-1856.1607 209.8237,-1842.7581"/>
<polygon fill="#000000" stroke="#000000" points="213.3217,-1842.5624 209.7069,-1832.6034 206.3222,-1842.643 213.3217,-1842.5624"/>
<text text-anchor="middle" x="241" y="-1854.4" font-family="Times,serif" font-size="14.00" fill="#000000">refblastOut</text>
</g>
<!-- p5 -->
<g id="node8" class="node">
<title>p5</title>
<ellipse fill="#000000" stroke="#000000" cx="1130.5" cy="-2119.6" rx="3.6" ry="3.6"/>
<text text-anchor="middle" x="1076.9" y="-2127" font-family="Times,serif" font-size="14.00" fill="#000000">Channel.fromPath</text>
</g>
<!-- p6 -->
<g id="node9" class="node">
<title>p6</title>
<ellipse fill="none" stroke="#000000" cx="1130.5" cy="-2047.1" rx="3.5" ry="3.5"/>
<text text-anchor="middle" x="1114.5" y="-2054.4" font-family="Times,serif" font-size="14.00" fill="#000000">map</text>
</g>
<!-- p5&#45;&gt;p6 -->
<g id="edge7" class="edge">
<title>p5&#45;&gt;p6</title>
<path fill="none" stroke="#000000" d="M1130.5,-2115.7021C1130.5,-2105.577 1130.5,-2078.0543 1130.5,-2061.1062"/>
<polygon fill="#000000" stroke="#000000" points="1134.0001,-2060.6705 1130.5,-2050.6706 1127.0001,-2060.6706 1134.0001,-2060.6705"/>
</g>
<!-- p7 -->
<g id="node10" class="node">
<title>p7</title>
<ellipse fill="none" stroke="#000000" cx="1130.5" cy="-1988.6" rx="3.5" ry="3.5"/>
<text text-anchor="middle" x="1113.5" y="-1995.9" font-family="Times,serif" font-size="14.00" fill="#000000">view</text>
</g>
<!-- p6&#45;&gt;p7 -->
<g id="edge8" class="edge">
<title>p6&#45;&gt;p7</title>
<path fill="none" stroke="#000000" d="M1130.5,-2043.2617C1130.5,-2035.0878 1130.5,-2015.6199 1130.5,-2002.2686"/>
<polygon fill="#000000" stroke="#000000" points="1134.0001,-2002.2263 1130.5,-1992.2263 1127.0001,-2002.2263 1134.0001,-2002.2263"/>
</g>
<!-- p8 -->
<g id="node11" class="node">
<title>p8</title>
<ellipse fill="none" stroke="#000000" cx="1130.5" cy="-1901.6" rx="3.5" ry="3.5"/>
<text text-anchor="middle" x="1116" y="-1908.9" font-family="Times,serif" font-size="14.00" fill="#000000">into</text>
</g>
<!-- p7&#45;&gt;p8 -->
<g id="edge9" class="edge">
<title>p7&#45;&gt;p8</title>
<path fill="none" stroke="#000000" d="M1130.5,-1984.8617C1130.5,-1973.0107 1130.5,-1935.8578 1130.5,-1915.4184"/>
<polygon fill="#000000" stroke="#000000" points="1134.0001,-1915.2275 1130.5,-1905.2275 1127.0001,-1915.2276 1134.0001,-1915.2275"/>
</g>
<!-- p71 -->
<g id="node12" class="node">
<title>p71</title>
<ellipse fill="none" stroke="#000000" cx="1086.5" cy="-1814.6" rx="3.5" ry="3.5"/>
<text text-anchor="middle" x="1059" y="-1821.9" font-family="Times,serif" font-size="14.00" fill="#000000">combine</text>
</g>
<!-- p8&#45;&gt;p71 -->
<g id="edge10" class="edge">
<title>p8&#45;&gt;p71</title>
<path fill="none" stroke="#000000" d="M1127.2113,-1900.0866C1118.7278,-1895.9766 1096.1641,-1883.6886 1087.5,-1865.6 1081.8907,-1853.8891 1082.3789,-1838.8628 1083.8199,-1828.1605"/>
<polygon fill="#000000" stroke="#000000" points="1087.3144,-1828.5029 1085.641,-1818.0411 1080.4251,-1827.2631 1087.3144,-1828.5029"/>
<text text-anchor="middle" x="1124.5" y="-1854.4" font-family="Times,serif" font-size="14.00" fill="#000000">generefinputs</text>
</g>
<!-- p90 -->
<g id="node13" class="node">
<title>p90</title>
<ellipse fill="none" stroke="#000000" cx="1099.5" cy="-760.1" rx="3.5" ry="3.5"/>
<text text-anchor="middle" x="1120" y="-767.4" font-family="Times,serif" font-size="14.00" fill="#000000">combine</text>
</g>
<!-- p8&#45;&gt;p90 -->
<g id="edge11" class="edge">
<title>p8&#45;&gt;p90</title>
<path fill="none" stroke="#000000" d="M1133.155,-1899.2578C1139.0858,-1893.8878 1153.5152,-1880.0345 1161.5,-1865.6 1189.1953,-1815.5336 1182.5271,-1797.2407 1199.5,-1742.6 1222.4974,-1668.5646 1251.5,-1653.625 1251.5,-1576.1 1251.5,-1576.1 1251.5,-1576.1 1251.5,-967.1 1251.5,-877.0605 1227.3606,-846.9962 1161.5,-785.6 1147.8122,-772.84 1126.8618,-766.0494 1113.1706,-762.7632"/>
<polygon fill="#000000" stroke="#000000" points="1113.5575,-759.2689 1103.0544,-760.6598 1112.1324,-766.1223 1113.5575,-759.2689"/>
<text text-anchor="middle" x="1292" y="-1311.4" font-family="Times,serif" font-size="14.00" fill="#000000">generefinputs2</text>
</g>
<!-- p72 -->
<g id="node78" class="node">
<title>p72</title>
<ellipse fill="none" stroke="#000000" cx="1087.5" cy="-1706.6" rx="48.1917" ry="18"/>
<text text-anchor="middle" x="1087.5" y="-1702.9" font-family="Times,serif" font-size="14.00" fill="#000000">mapGenes</text>
</g>
<!-- p71&#45;&gt;p72 -->
<g id="edge84" class="edge">
<title>p71&#45;&gt;p72</title>
<path fill="none" stroke="#000000" d="M1086.5333,-1811.0066C1086.6411,-1799.3616 1086.9882,-1761.8721 1087.2356,-1735.1552"/>
<polygon fill="#000000" stroke="#000000" points="1090.7384,-1734.8535 1087.3313,-1724.8215 1083.7387,-1734.7886 1090.7384,-1734.8535"/>
</g>
<!-- p91 -->
<g id="node94" class="node">
<title>p91</title>
<ellipse fill="none" stroke="#000000" cx="1099.5" cy="-698.1" rx="3.5" ry="3.5"/>
<text text-anchor="middle" x="1082.5" y="-705.4" font-family="Times,serif" font-size="14.00" fill="#000000">filter</text>
</g>
<!-- p90&#45;&gt;p91 -->
<g id="edge106" class="edge">
<title>p90&#45;&gt;p91</title>
<path fill="none" stroke="#000000" d="M1099.5,-756.4073C1099.5,-747.8582 1099.5,-726.3403 1099.5,-711.974"/>
<polygon fill="#000000" stroke="#000000" points="1103.0001,-711.6957 1099.5,-701.6957 1096.0001,-711.6957 1103.0001,-711.6957"/>
</g>
<!-- p9 -->
<g id="node14" class="node">
<title>p9</title>
<ellipse fill="#000000" stroke="#000000" cx="860.5" cy="-2368.4" rx="3.6" ry="3.6"/>
<text text-anchor="middle" x="806.9" y="-2375.8" font-family="Times,serif" font-size="14.00" fill="#000000">Channel.fromPath</text>
</g>
<!-- p10 -->
<g id="node15" class="node">
<title>p10</title>
<ellipse fill="none" stroke="#000000" cx="860.5" cy="-2324.3" rx="3.5" ry="3.5"/>
<text text-anchor="middle" x="834.5" y="-2331.6" font-family="Times,serif" font-size="14.00" fill="#000000">splitCsv</text>
</g>
<!-- p9&#45;&gt;p10 -->
<g id="edge12" class="edge">
<title>p9&#45;&gt;p10</title>
<path fill="none" stroke="#000000" d="M860.5,-2364.6401C860.5,-2358.8469 860.5,-2347.444 860.5,-2338.2354"/>
<polygon fill="#000000" stroke="#000000" points="864.0001,-2338.0504 860.5,-2328.0504 857.0001,-2338.0505 864.0001,-2338.0504"/>
</g>
<!-- p11 -->
<g id="node16" class="node">
<title>p11</title>
<ellipse fill="none" stroke="#000000" cx="860.5" cy="-2280.3" rx="3.5" ry="3.5"/>
<text text-anchor="middle" x="844.5" y="-2287.6" font-family="Times,serif" font-size="14.00" fill="#000000">map</text>
</g>
<!-- p10&#45;&gt;p11 -->
<g id="edge13" class="edge">
<title>p10&#45;&gt;p11</title>
<path fill="none" stroke="#000000" d="M860.5,-2320.5486C860.5,-2314.7686 860.5,-2303.3915 860.5,-2294.2038"/>
<polygon fill="#000000" stroke="#000000" points="864.0001,-2294.0419 860.5,-2284.0419 857.0001,-2294.042 864.0001,-2294.0419"/>
</g>
<!-- p12 -->
<g id="node17" class="node">
<title>p12</title>
<ellipse fill="none" stroke="#000000" cx="860.5" cy="-2236.3" rx="3.5" ry="3.5"/>
<text text-anchor="middle" x="843.5" y="-2243.6" font-family="Times,serif" font-size="14.00" fill="#000000">view</text>
</g>
<!-- p11&#45;&gt;p12 -->
<g id="edge14" class="edge">
<title>p11&#45;&gt;p12</title>
<path fill="none" stroke="#000000" d="M860.5,-2276.5486C860.5,-2270.7686 860.5,-2259.3915 860.5,-2250.2038"/>
<polygon fill="#000000" stroke="#000000" points="864.0001,-2250.0419 860.5,-2240.0419 857.0001,-2250.042 864.0001,-2250.0419"/>
</g>
<!-- p13 -->
<g id="node18" class="node">
<title>p13</title>
<ellipse fill="none" stroke="#000000" cx="860.5" cy="-2192.2" rx="3.5" ry="3.5"/>
<text text-anchor="middle" x="846" y="-2199.5" font-family="Times,serif" font-size="14.00" fill="#000000">into</text>
</g>
<!-- p12&#45;&gt;p13 -->
<g id="edge15" class="edge">
<title>p12&#45;&gt;p13</title>
<path fill="none" stroke="#000000" d="M860.5,-2232.5401C860.5,-2226.7469 860.5,-2215.344 860.5,-2206.1354"/>
<polygon fill="#000000" stroke="#000000" points="864.0001,-2205.9504 860.5,-2195.9504 857.0001,-2205.9505 864.0001,-2205.9504"/>
</g>
<!-- p14 -->
<g id="node19" class="node">
<title>p14</title>
<ellipse fill="none" stroke="#000000" cx="860.5" cy="-2119.6" rx="48.1917" ry="18"/>
<text text-anchor="middle" x="860.5" y="-2115.9" font-family="Times,serif" font-size="14.00" fill="#000000">dumpCent</text>
</g>
<!-- p13&#45;&gt;p14 -->
<g id="edge16" class="edge">
<title>p13&#45;&gt;p14</title>
<path fill="none" stroke="#000000" d="M860.5,-2188.6984C860.5,-2181.334 860.5,-2163.6304 860.5,-2147.9875"/>
<polygon fill="#000000" stroke="#000000" points="864.0001,-2147.6393 860.5,-2137.6393 857.0001,-2147.6394 864.0001,-2147.6393"/>
<text text-anchor="middle" x="872.5" y="-2159.4" font-family="Times,serif" font-size="14.00" fill="#000000">runs</text>
</g>
<!-- p15 -->
<g id="node20" class="node">
<title>p15</title>
<ellipse fill="none" stroke="#000000" cx="763.5" cy="-2047.1" rx="3.5" ry="3.5"/>
<text text-anchor="middle" x="736" y="-2054.4" font-family="Times,serif" font-size="14.00" fill="#000000">combine</text>
</g>
<!-- p13&#45;&gt;p15 -->
<g id="edge17" class="edge">
<title>p13&#45;&gt;p15</title>
<path fill="none" stroke="#000000" d="M857.0099,-2191.256C843.3741,-2187.365 793.4204,-2171.1699 772.5,-2137.6 757.6374,-2113.7508 759.0904,-2079.321 761.3567,-2060.5493"/>
<polygon fill="#000000" stroke="#000000" points="764.8334,-2060.9634 762.8327,-2050.5592 757.9086,-2059.9402 764.8334,-2060.9634"/>
<text text-anchor="middle" x="788" y="-2115.9" font-family="Times,serif" font-size="14.00" fill="#000000">runs2</text>
</g>
<!-- p74 -->
<g id="node21" class="node">
<title>p74</title>
<ellipse fill="none" stroke="#000000" cx="1180.5" cy="-1532.6" rx="3.5" ry="3.5"/>
<text text-anchor="middle" x="1153" y="-1539.9" font-family="Times,serif" font-size="14.00" fill="#000000">combine</text>
</g>
<!-- p13&#45;&gt;p74 -->
<g id="edge18" class="edge">
<title>p13&#45;&gt;p74</title>
<path fill="none" stroke="#000000" d="M863.9938,-2191.8697C900.6553,-2188.359 1213.5,-2157.2969 1213.5,-2119.6 1213.5,-2119.6 1213.5,-2119.6 1213.5,-1619.6 1213.5,-1591.2493 1197.9908,-1560.8823 1188.237,-1544.5876"/>
<polygon fill="#000000" stroke="#000000" points="1190.9601,-1542.3441 1182.6652,-1535.7527 1185.0392,-1546.0781 1190.9601,-1542.3441"/>
<text text-anchor="middle" x="1229" y="-1897.9" font-family="Times,serif" font-size="14.00" fill="#000000">runs3</text>
</g>
<!-- p59 -->
<g id="node22" class="node">
<title>p59</title>
<ellipse fill="none" stroke="#000000" cx="328.5" cy="-1532.6" rx="3.5" ry="3.5"/>
<text text-anchor="middle" x="301" y="-1539.9" font-family="Times,serif" font-size="14.00" fill="#000000">combine</text>
</g>
<!-- p13&#45;&gt;p59 -->
<g id="edge19" class="edge">
<title>p13&#45;&gt;p59</title>
<path fill="none" stroke="#000000" d="M856.8586,-2192.0973C823.52,-2191.0618 572.5,-2181.2192 572.5,-2119.6 572.5,-2119.6 572.5,-2119.6 572.5,-1619.6 572.5,-1570.3661 394.0203,-1541.7098 342.3549,-1534.4459"/>
<polygon fill="#000000" stroke="#000000" points="342.7125,-1530.9624 332.3327,-1533.0859 341.7712,-1537.8988 342.7125,-1530.9624"/>
<text text-anchor="middle" x="588" y="-1897.9" font-family="Times,serif" font-size="14.00" fill="#000000">runs4</text>
</g>
<!-- p38 -->
<g id="node23" class="node">
<title>p38</title>
<ellipse fill="none" stroke="#000000" cx="902.5" cy="-1445.6" rx="3.5" ry="3.5"/>
<text text-anchor="middle" x="875" y="-1452.9" font-family="Times,serif" font-size="14.00" fill="#000000">combine</text>
</g>
<!-- p13&#45;&gt;p38 -->
<g id="edge20" class="edge">
<title>p13&#45;&gt;p38</title>
<path fill="none" stroke="#000000" d="M864.0934,-2191.6331C882.833,-2188.4553 968.5,-2171.1112 968.5,-2119.6 968.5,-2119.6 968.5,-2119.6 968.5,-1532.6 968.5,-1497.0881 933.1656,-1466.9664 914.2044,-1453.359"/>
<polygon fill="#000000" stroke="#000000" points="915.9216,-1450.2943 905.6833,-1447.569 911.9875,-1456.0842 915.9216,-1450.2943"/>
<text text-anchor="middle" x="984" y="-1854.4" font-family="Times,serif" font-size="14.00" fill="#000000">runs5</text>
</g>
<!-- p14&#45;&gt;p15 -->
<g id="edge21" class="edge">
<title>p14&#45;&gt;p15</title>
<path fill="none" stroke="#000000" d="M838.4892,-2103.1486C818.4974,-2088.2063 789.8437,-2066.7899 774.3849,-2055.2356"/>
<polygon fill="#000000" stroke="#000000" points="776.4607,-2052.4175 766.3554,-2049.2342 772.2699,-2058.0245 776.4607,-2052.4175"/>
<text text-anchor="middle" x="836" y="-2072.4" font-family="Times,serif" font-size="14.00" fill="#000000">centFiles</text>
</g>
<!-- p16 -->
<g id="node24" class="node">
<title>p16</title>
<ellipse fill="none" stroke="#000000" cx="740.5" cy="-1988.6" rx="43.5923" ry="18"/>
<text text-anchor="middle" x="740.5" y="-1984.9" font-family="Times,serif" font-size="14.00" fill="#000000">binReads</text>
</g>
<!-- p15&#45;&gt;p16 -->
<g id="edge22" class="edge">
<title>p15&#45;&gt;p16</title>
<path fill="none" stroke="#000000" d="M762.1301,-2043.6158C759.961,-2038.0986 755.5412,-2026.8571 751.2591,-2015.9654"/>
<polygon fill="#000000" stroke="#000000" points="754.5077,-2014.6626 747.5914,-2006.6368 747.9931,-2017.224 754.5077,-2014.6626"/>
</g>
<!-- p75 -->
<g id="node82" class="node">
<title>p75</title>
<ellipse fill="none" stroke="#000000" cx="1166.5" cy="-1445.6" rx="36.2938" ry="18"/>
<text text-anchor="middle" x="1166.5" y="-1441.9" font-family="Times,serif" font-size="14.00" fill="#000000">rebinf5</text>
</g>
<!-- p74&#45;&gt;p75 -->
<g id="edge89" class="edge">
<title>p74&#45;&gt;p75</title>
<path fill="none" stroke="#000000" d="M1179.8984,-1528.8617C1178.3831,-1519.445 1174.297,-1494.053 1171.0323,-1473.7647"/>
<polygon fill="#000000" stroke="#000000" points="1174.4622,-1473.049 1169.4178,-1463.7322 1167.5511,-1474.1612 1174.4622,-1473.049"/>
</g>
<!-- p60 -->
<g id="node68" class="node">
<title>p60</title>
<ellipse fill="none" stroke="#000000" cx="328.5" cy="-1445.6" rx="48.9926" ry="18"/>
<text text-anchor="middle" x="328.5" y="-1441.9" font-family="Times,serif" font-size="14.00" fill="#000000">rebinCutf5</text>
</g>
<!-- p59&#45;&gt;p60 -->
<g id="edge72" class="edge">
<title>p59&#45;&gt;p60</title>
<path fill="none" stroke="#000000" d="M328.5,-1528.8617C328.5,-1519.445 328.5,-1494.053 328.5,-1473.7647"/>
<polygon fill="#000000" stroke="#000000" points="332.0001,-1473.7321 328.5,-1463.7322 325.0001,-1473.7322 332.0001,-1473.7321"/>
</g>
<!-- p39 -->
<g id="node49" class="node">
<title>p39</title>
<ellipse fill="none" stroke="#000000" cx="902.5" cy="-1358.6" rx="74.187" ry="18"/>
<text text-anchor="middle" x="902.5" y="-1354.9" font-family="Times,serif" font-size="14.00" fill="#000000">rebinRemapCutf5</text>
</g>
<!-- p38&#45;&gt;p39 -->
<g id="edge51" class="edge">
<title>p38&#45;&gt;p39</title>
<path fill="none" stroke="#000000" d="M902.5,-1441.8617C902.5,-1432.445 902.5,-1407.053 902.5,-1386.7647"/>
<polygon fill="#000000" stroke="#000000" points="906.0001,-1386.7321 902.5,-1376.7322 899.0001,-1386.7322 906.0001,-1386.7321"/>
</g>
<!-- p16&#45;&gt;p49 -->
<g id="edge23" class="edge">
<title>p16&#45;&gt;p49</title>
<path fill="none" stroke="#000000" d="M704.0214,-1978.62C633.4857,-1959.3225 481.3254,-1917.6937 435.6955,-1905.2101"/>
<polygon fill="#000000" stroke="#000000" points="436.5455,-1901.8141 425.9764,-1902.5511 434.6983,-1908.566 436.5455,-1901.8141"/>
<text text-anchor="middle" x="615.5" y="-1941.4" font-family="Times,serif" font-size="14.00" fill="#000000">maps</text>
</g>
<!-- p16&#45;&gt;p71 -->
<g id="edge26" class="edge">
<title>p16&#45;&gt;p71</title>
<path fill="none" stroke="#000000" d="M771.3968,-1975.8307C787.3462,-1969.12 807.0656,-1960.6379 824.5,-1952.6 903.7412,-1916.0671 923.807,-1907.2175 1000.5,-1865.6 1027.5333,-1850.9304 1058.3438,-1832.1357 1074.7524,-1821.9538"/>
<polygon fill="#000000" stroke="#000000" points="1076.6413,-1824.9007 1083.271,-1816.6365 1072.9346,-1818.9626 1076.6413,-1824.9007"/>
<text text-anchor="middle" x="984" y="-1897.9" font-family="Times,serif" font-size="14.00" fill="#000000">maps4</text>
</g>
<!-- p19 -->
<g id="node25" class="node">
<title>p19</title>
<ellipse fill="none" stroke="#000000" cx="798.5" cy="-1901.6" rx="43.5923" ry="18"/>
<text text-anchor="middle" x="798.5" y="-1897.9" font-family="Times,serif" font-size="14.00" fill="#000000">assemble</text>
</g>
<!-- p16&#45;&gt;p19 -->
<g id="edge24" class="edge">
<title>p16&#45;&gt;p19</title>
<path fill="none" stroke="#000000" d="M758.9089,-1972.0982C764.6935,-1966.3106 770.7923,-1959.5185 775.5,-1952.6 780.3947,-1945.4067 784.6801,-1937.0031 788.1833,-1929.1168"/>
<polygon fill="#000000" stroke="#000000" points="791.4212,-1930.4459 792.0568,-1919.8701 784.9648,-1927.7412 791.4212,-1930.4459"/>
<text text-anchor="middle" x="802" y="-1941.4" font-family="Times,serif" font-size="14.00" fill="#000000">maps2</text>
</g>
<!-- p18 -->
<g id="node26" class="node">
<title>p18</title>
<ellipse fill="#000000" stroke="#000000" cx="676.5" cy="-1901.6" rx="1.8" ry="1.8"/>
</g>
<!-- p16&#45;&gt;p18 -->
<g id="edge25" class="edge">
<title>p16&#45;&gt;p18</title>
<path fill="none" stroke="#000000" d="M717.4139,-1973.3231C709.9763,-1967.5273 702.1938,-1960.4191 696.5,-1952.6 687.8083,-1940.664 682.3032,-1924.4485 679.3162,-1913.5338"/>
<polygon fill="#000000" stroke="#000000" points="682.6952,-1912.6166 676.9266,-1903.7299 675.8943,-1914.2744 682.6952,-1912.6166"/>
<text text-anchor="middle" x="715" y="-1941.4" font-family="Times,serif" font-size="14.00" fill="#000000">maps3</text>
</g>
<!-- p17 -->
<g id="node27" class="node">
<title>p17</title>
<ellipse fill="#000000" stroke="#000000" cx="735.5" cy="-1901.6" rx="1.8" ry="1.8"/>
</g>
<!-- p16&#45;&gt;p17 -->
<g id="edge27" class="edge">
<title>p16&#45;&gt;p17</title>
<path fill="none" stroke="#000000" d="M739.464,-1970.5735C738.4829,-1953.502 737.0373,-1928.3487 736.1899,-1913.6035"/>
<polygon fill="#000000" stroke="#000000" points="739.6784,-1913.3012 735.6103,-1903.5185 732.6899,-1913.7029 739.6784,-1913.3012"/>
<text text-anchor="middle" x="756" y="-1941.4" font-family="Times,serif" font-size="14.00" fill="#000000">maps5</text>
</g>
<!-- p21 -->
<g id="node28" class="node">
<title>p21</title>
<ellipse fill="none" stroke="#000000" cx="695.5" cy="-1814.6" rx="31.6951" ry="18"/>
<text text-anchor="middle" x="695.5" y="-1810.9" font-family="Times,serif" font-size="14.00" fill="#000000">blastn</text>
</g>
<!-- p19&#45;&gt;p21 -->
<g id="edge28" class="edge">
<title>p19&#45;&gt;p21</title>
<path fill="none" stroke="#000000" d="M768.1104,-1888.5822C756.2386,-1882.624 742.9879,-1874.8219 732.5,-1865.6 724.3673,-1858.449 716.9913,-1849.2017 711.0031,-1840.5489"/>
<polygon fill="#000000" stroke="#000000" points="713.924,-1838.6205 705.5008,-1832.194 708.0779,-1842.4706 713.924,-1838.6205"/>
<text text-anchor="middle" x="761.5" y="-1854.4" font-family="Times,serif" font-size="14.00" fill="#000000">assembled</text>
</g>
<!-- p22 -->
<g id="node29" class="node">
<title>p22</title>
<ellipse fill="none" stroke="#000000" cx="794.5" cy="-1814.6" rx="48.9926" ry="18"/>
<text text-anchor="middle" x="794.5" y="-1810.9" font-family="Times,serif" font-size="14.00" fill="#000000">blastnmast</text>
</g>
<!-- p19&#45;&gt;p22 -->
<g id="edge29" class="edge">
<title>p19&#45;&gt;p22</title>
<path fill="none" stroke="#000000" d="M796.7487,-1883.301C796.2671,-1877.6324 795.7963,-1871.3623 795.5,-1865.6 795.1272,-1858.3505 794.8907,-1850.5149 794.7413,-1843.2116"/>
<polygon fill="#000000" stroke="#000000" points="798.2379,-1842.9658 794.5791,-1833.0228 791.2388,-1843.0773 798.2379,-1842.9658"/>
<text text-anchor="middle" x="827.5" y="-1854.4" font-family="Times,serif" font-size="14.00" fill="#000000">assembled2</text>
</g>
<!-- p20 -->
<g id="node30" class="node">
<title>p20</title>
<ellipse fill="none" stroke="#000000" cx="885.5" cy="-1760.6" rx="33.2948" ry="18"/>
<text text-anchor="middle" x="885.5" y="-1756.9" font-family="Times,serif" font-size="14.00" fill="#000000">remap</text>
</g>
<!-- p19&#45;&gt;p20 -->
<g id="edge30" class="edge">
<title>p19&#45;&gt;p20</title>
<path fill="none" stroke="#000000" d="M830.0311,-1889.1117C840.8017,-1883.4176 852.0075,-1875.6592 859.5,-1865.6 876.157,-1843.2367 882.2382,-1811.4915 884.4082,-1788.7712"/>
<polygon fill="#000000" stroke="#000000" points="887.9034,-1788.9652 885.1713,-1778.7287 880.9236,-1788.4347 887.9034,-1788.9652"/>
<text text-anchor="middle" x="899.5" y="-1854.4" font-family="Times,serif" font-size="14.00" fill="#000000">assembled3</text>
</g>
<!-- p24 -->
<g id="node32" class="node">
<title>p24</title>
<ellipse fill="none" stroke="#000000" cx="695.5" cy="-1706.6" rx="51.9908" ry="18"/>
<text text-anchor="middle" x="695.5" y="-1702.9" font-family="Times,serif" font-size="14.00" fill="#000000">parseBlast6</text>
</g>
<!-- p21&#45;&gt;p24 -->
<g id="edge32" class="edge">
<title>p21&#45;&gt;p24</title>
<path fill="none" stroke="#000000" d="M695.5,-1796.2793C695.5,-1779.421 695.5,-1754.1651 695.5,-1734.747"/>
<polygon fill="#000000" stroke="#000000" points="699.0001,-1734.6501 695.5,-1724.6502 692.0001,-1734.6502 699.0001,-1734.6501"/>
<text text-anchor="middle" x="718.5" y="-1756.9" font-family="Times,serif" font-size="14.00" fill="#000000">blastOut</text>
</g>
<!-- p23 -->
<g id="node33" class="node">
<title>p23</title>
<ellipse fill="#000000" stroke="#000000" cx="774.5" cy="-1706.6" rx="1.8" ry="1.8"/>
</g>
<!-- p22&#45;&gt;p23 -->
<g id="edge33" class="edge">
<title>p22&#45;&gt;p23</title>
<path fill="none" stroke="#000000" d="M780.0366,-1797.3498C776.1654,-1791.7238 772.5026,-1785.2141 770.5,-1778.6 764.2782,-1758.0507 768.1878,-1732.721 771.4466,-1718.2383"/>
<polygon fill="#000000" stroke="#000000" points="774.8668,-1718.9905 773.9472,-1708.4356 768.084,-1717.2602 774.8668,-1718.9905"/>
<text text-anchor="middle" x="807" y="-1756.9" font-family="Times,serif" font-size="14.00" fill="#000000">blastmastOut</text>
</g>
<!-- p25 -->
<g id="node31" class="node">
<title>p25</title>
<ellipse fill="none" stroke="#000000" cx="767.5" cy="-1619.6" rx="3.5" ry="3.5"/>
<text text-anchor="middle" x="740" y="-1626.9" font-family="Times,serif" font-size="14.00" fill="#000000">combine</text>
</g>
<!-- p20&#45;&gt;p25 -->
<g id="edge31" class="edge">
<title>p20&#45;&gt;p25</title>
<path fill="none" stroke="#000000" d="M886.0428,-1742.3469C885.7401,-1719.3884 881.8175,-1680.0232 860.5,-1655.6 839.7581,-1631.8363 801.4369,-1623.6633 781.0629,-1620.9259"/>
<polygon fill="#000000" stroke="#000000" points="781.334,-1617.4348 771.0142,-1619.8331 780.5771,-1624.3938 781.334,-1617.4348"/>
<text text-anchor="middle" x="912" y="-1702.9" font-family="Times,serif" font-size="14.00" fill="#000000">remapped</text>
</g>
<!-- p26 -->
<g id="node35" class="node">
<title>p26</title>
<ellipse fill="none" stroke="#000000" cx="708.5" cy="-1532.6" rx="63.8893" ry="18"/>
<text text-anchor="middle" x="708.5" y="-1528.9" font-family="Times,serif" font-size="14.00" fill="#000000">cutRemapBam</text>
</g>
<!-- p25&#45;&gt;p26 -->
<g id="edge36" class="edge">
<title>p25&#45;&gt;p26</title>
<path fill="none" stroke="#000000" d="M765.2592,-1616.2957C758.9603,-1607.0075 740.635,-1579.9856 726.4934,-1559.1326"/>
<polygon fill="#000000" stroke="#000000" points="729.2455,-1556.9549 720.736,-1550.643 723.452,-1560.8838 729.2455,-1556.9549"/>
</g>
<!-- p24&#45;&gt;p25 -->
<g id="edge34" class="edge">
<title>p24&#45;&gt;p25</title>
<path fill="none" stroke="#000000" d="M722.4001,-1691.1915C730.6073,-1685.52 739.134,-1678.5205 745.5,-1670.6 754.5501,-1659.34 760.5421,-1643.7931 763.9559,-1632.8329"/>
<polygon fill="#000000" stroke="#000000" points="767.3382,-1633.7338 766.671,-1623.16 760.5987,-1631.842 767.3382,-1633.7338"/>
<text text-anchor="middle" x="805" y="-1659.4" font-family="Times,serif" font-size="14.00" fill="#000000">assembly_pb6_out</text>
</g>
<!-- p42 -->
<g id="node34" class="node">
<title>p42</title>
<ellipse fill="none" stroke="#000000" cx="604.5" cy="-1619.6" rx="3.5" ry="3.5"/>
<text text-anchor="middle" x="575" y="-1626.9" font-family="Times,serif" font-size="14.00" fill="#000000">transpose</text>
</g>
<!-- p24&#45;&gt;p42 -->
<g id="edge35" class="edge">
<title>p24&#45;&gt;p42</title>
<path fill="none" stroke="#000000" d="M654.2053,-1695.6124C632.3775,-1688.8812 608.8121,-1679.812 602.5,-1670.6 594.9229,-1659.5419 596.9995,-1643.7434 599.9662,-1632.6686"/>
<polygon fill="#000000" stroke="#000000" points="603.3614,-1633.5454 603.1201,-1622.9533 596.7034,-1631.384 603.3614,-1633.5454"/>
<text text-anchor="middle" x="672" y="-1659.4" font-family="Times,serif" font-size="14.00" fill="#000000">assembly_gene_windows</text>
</g>
<!-- p43 -->
<g id="node53" class="node">
<title>p43</title>
<ellipse fill="none" stroke="#000000" cx="514.5" cy="-1532.6" rx="3.5" ry="3.5"/>
<text text-anchor="middle" x="498.5" y="-1539.9" font-family="Times,serif" font-size="14.00" fill="#000000">map</text>
</g>
<!-- p42&#45;&gt;p43 -->
<g id="edge55" class="edge">
<title>p42&#45;&gt;p43</title>
<path fill="none" stroke="#000000" d="M604.1428,-1615.9195C603.08,-1606.8191 599.1765,-1582.9597 586.5,-1568.6 570.7276,-1550.7333 544.0191,-1540.6954 527.9433,-1535.9843"/>
<polygon fill="#000000" stroke="#000000" points="528.6421,-1532.5489 518.0798,-1533.3786 526.8541,-1539.3167 528.6421,-1532.5489"/>
</g>
<!-- p26&#45;&gt;p38 -->
<g id="edge37" class="edge">
<title>p26&#45;&gt;p38</title>
<path fill="none" stroke="#000000" d="M765.7885,-1524.6271C792.1455,-1519.3007 823.1217,-1510.605 848.5,-1496.6 867.1994,-1486.2808 884.3057,-1467.9668 894.0533,-1456.3222"/>
<polygon fill="#000000" stroke="#000000" points="896.8562,-1458.4216 900.3839,-1448.4313 891.3961,-1454.0412 896.8562,-1458.4216"/>
<text text-anchor="middle" x="903" y="-1485.4" font-family="Times,serif" font-size="14.00" fill="#000000">RemapCuts1</text>
</g>
<!-- p28 -->
<g id="node36" class="node">
<title>p28</title>
<ellipse fill="#000000" stroke="#000000" cx="661.5" cy="-1445.6" rx="1.8" ry="1.8"/>
</g>
<!-- p26&#45;&gt;p28 -->
<g id="edge38" class="edge">
<title>p26&#45;&gt;p28</title>
<path fill="none" stroke="#000000" d="M677.1851,-1516.8899C669.7126,-1511.5366 662.6938,-1504.7874 658.5,-1496.6 652.1755,-1484.2531 654.6989,-1467.9562 657.6195,-1457.1447"/>
<polygon fill="#000000" stroke="#000000" points="661.0528,-1457.9037 660.8109,-1447.3117 654.3947,-1455.7427 661.0528,-1457.9037"/>
<text text-anchor="middle" x="694" y="-1485.4" font-family="Times,serif" font-size="14.00" fill="#000000">RemapCuts2</text>
</g>
<!-- p27 -->
<g id="node37" class="node">
<title>p27</title>
<ellipse fill="#000000" stroke="#000000" cx="544.5" cy="-1445.6" rx="1.8" ry="1.8"/>
</g>
<!-- p26&#45;&gt;p27 -->
<g id="edge39" class="edge">
<title>p26&#45;&gt;p27</title>
<path fill="none" stroke="#000000" d="M650.217,-1525.2086C613.1712,-1519.3361 569.7696,-1509.8891 556.5,-1496.6 546.3371,-1486.4222 544.1507,-1469.3599 543.9644,-1457.8009"/>
<polygon fill="#000000" stroke="#000000" points="547.4725,-1457.6126 544.3063,-1447.5019 540.4763,-1457.3802 547.4725,-1457.6126"/>
<text text-anchor="middle" x="603.5" y="-1485.4" font-family="Times,serif" font-size="14.00" fill="#000000">cutRemapDepths</text>
</g>
<!-- p29 -->
<g id="node38" class="node">
<title>p29</title>
<ellipse fill="none" stroke="#000000" cx="489.5" cy="-1445.6" rx="3.5" ry="3.5"/>
<text text-anchor="middle" x="460" y="-1452.9" font-family="Times,serif" font-size="14.00" fill="#000000">transpose</text>
</g>
<!-- p26&#45;&gt;p29 -->
<g id="edge40" class="edge">
<title>p26&#45;&gt;p29</title>
<path fill="none" stroke="#000000" d="M647.8043,-1527.1159C583.7003,-1520.6966 490.3706,-1509.313 479.5,-1496.6 470.2572,-1485.7907 476.1876,-1468.9576 482.1102,-1457.6167"/>
<polygon fill="#000000" stroke="#000000" points="485.2412,-1459.1969 487.2908,-1448.8022 479.2063,-1455.65 485.2412,-1459.1969"/>
<text text-anchor="middle" x="511.5" y="-1485.4" font-family="Times,serif" font-size="14.00" fill="#000000">WGAgenes</text>
</g>
<!-- p33 -->
<g id="node39" class="node">
<title>p33</title>
<ellipse fill="none" stroke="#000000" cx="754.5" cy="-1445.6" rx="3.5" ry="3.5"/>
<text text-anchor="middle" x="725" y="-1452.9" font-family="Times,serif" font-size="14.00" fill="#000000">transpose</text>
</g>
<!-- p26&#45;&gt;p33 -->
<g id="edge41" class="edge">
<title>p26&#45;&gt;p33</title>
<path fill="none" stroke="#000000" d="M722.0113,-1514.7753C725.9806,-1509.126 730.1512,-1502.7475 733.5,-1496.6 740.2893,-1484.1367 746.2564,-1469.0093 750.0775,-1458.4806"/>
<polygon fill="#000000" stroke="#000000" points="753.4185,-1459.5294 753.4093,-1448.9346 746.8094,-1457.2227 753.4185,-1459.5294"/>
<text text-anchor="middle" x="792.5" y="-1485.4" font-family="Times,serif" font-size="14.00" fill="#000000">binnedWGAGenes</text>
</g>
<!-- p30 -->
<g id="node40" class="node">
<title>p30</title>
<ellipse fill="none" stroke="#000000" cx="578.5" cy="-1358.6" rx="3.5" ry="3.5"/>
<text text-anchor="middle" x="562.5" y="-1365.9" font-family="Times,serif" font-size="14.00" fill="#000000">map</text>
</g>
<!-- p29&#45;&gt;p30 -->
<g id="edge42" class="edge">
<title>p29&#45;&gt;p30</title>
<path fill="none" stroke="#000000" d="M492.8456,-1444.1893C506.7344,-1438.3071 559.3631,-1415.7536 564.5,-1409.6 573.2212,-1399.1527 576.5367,-1383.7069 577.7825,-1372.5527"/>
<polygon fill="#000000" stroke="#000000" points="581.2947,-1372.4942 578.4875,-1362.2781 574.3111,-1372.015 581.2947,-1372.4942"/>
</g>
<!-- p34 -->
<g id="node44" class="node">
<title>p34</title>
<ellipse fill="none" stroke="#000000" cx="750.5" cy="-1358.6" rx="3.5" ry="3.5"/>
<text text-anchor="middle" x="734.5" y="-1365.9" font-family="Times,serif" font-size="14.00" fill="#000000">map</text>
</g>
<!-- p33&#45;&gt;p34 -->
<g id="edge46" class="edge">
<title>p33&#45;&gt;p34</title>
<path fill="none" stroke="#000000" d="M754.3281,-1441.8617C753.7833,-1430.0107 752.0751,-1392.8578 751.1353,-1372.4184"/>
<polygon fill="#000000" stroke="#000000" points="754.6225,-1372.0562 750.6668,-1362.2275 747.6299,-1372.3777 754.6225,-1372.0562"/>
</g>
<!-- p31 -->
<g id="node41" class="node">
<title>p31</title>
<ellipse fill="none" stroke="#000000" cx="578.5" cy="-1271.6" rx="3.5" ry="3.5"/>
<text text-anchor="middle" x="561.5" y="-1278.9" font-family="Times,serif" font-size="14.00" fill="#000000">view</text>
</g>
<!-- p30&#45;&gt;p31 -->
<g id="edge43" class="edge">
<title>p30&#45;&gt;p31</title>
<path fill="none" stroke="#000000" d="M578.5,-1354.8617C578.5,-1343.0107 578.5,-1305.8578 578.5,-1285.4184"/>
<polygon fill="#000000" stroke="#000000" points="582.0001,-1285.2275 578.5,-1275.2275 575.0001,-1285.2276 582.0001,-1285.2275"/>
</g>
<!-- p32 -->
<g id="node42" class="node">
<title>p32</title>
<ellipse fill="none" stroke="#000000" cx="588.5" cy="-1141.1" rx="3.5" ry="3.5"/>
<text text-anchor="middle" x="574" y="-1148.4" font-family="Times,serif" font-size="14.00" fill="#000000">into</text>
</g>
<!-- p31&#45;&gt;p32 -->
<g id="edge44" class="edge">
<title>p31&#45;&gt;p32</title>
<path fill="none" stroke="#000000" d="M578.7675,-1268.1094C580.0012,-1252.0088 585.1786,-1184.4443 587.4379,-1154.96"/>
<polygon fill="#000000" stroke="#000000" points="590.9526,-1154.9007 588.227,-1144.6625 583.9731,-1154.3658 590.9526,-1154.9007"/>
</g>
<!-- p87 -->
<g id="node43" class="node">
<title>p87</title>
<ellipse fill="none" stroke="#000000" cx="633.5" cy="-1010.6" rx="3.5" ry="3.5"/>
<text text-anchor="middle" x="619" y="-1017.9" font-family="Times,serif" font-size="14.00" fill="#000000">mix</text>
</g>
<!-- p32&#45;&gt;p87 -->
<g id="edge45" class="edge">
<title>p32&#45;&gt;p87</title>
<path fill="none" stroke="#000000" d="M589.7036,-1137.6094C595.3054,-1121.3644 618.973,-1052.7283 628.991,-1023.676"/>
<polygon fill="#000000" stroke="#000000" points="632.3204,-1024.7572 632.2716,-1014.1625 625.7028,-1022.4752 632.3204,-1024.7572"/>
<text text-anchor="middle" x="649.5" y="-1093.9" font-family="Times,serif" font-size="14.00" fill="#000000">WGAgenebins</text>
</g>
<!-- p88 -->
<g id="node92" class="node">
<title>p88</title>
<ellipse fill="none" stroke="#000000" cx="733.5" cy="-923.6" rx="48.1917" ry="18"/>
<text text-anchor="middle" x="733.5" y="-919.9" font-family="Times,serif" font-size="14.00" fill="#000000">geneblastn</text>
</g>
<!-- p87&#45;&gt;p88 -->
<g id="edge103" class="edge">
<title>p87&#45;&gt;p88</title>
<path fill="none" stroke="#000000" d="M636.385,-1008.0901C646.5564,-999.2409 681.4825,-968.8552 706.5351,-947.0595"/>
<polygon fill="#000000" stroke="#000000" points="709.031,-949.5272 714.2782,-940.323 704.4364,-944.2461 709.031,-949.5272"/>
<text text-anchor="middle" x="714.5" y="-963.4" font-family="Times,serif" font-size="14.00" fill="#000000">geneSeqs</text>
</g>
<!-- p35 -->
<g id="node45" class="node">
<title>p35</title>
<ellipse fill="none" stroke="#000000" cx="744.5" cy="-1271.6" rx="3.5" ry="3.5"/>
<text text-anchor="middle" x="727.5" y="-1278.9" font-family="Times,serif" font-size="14.00" fill="#000000">filter</text>
</g>
<!-- p34&#45;&gt;p35 -->
<g id="edge47" class="edge">
<title>p34&#45;&gt;p35</title>
<path fill="none" stroke="#000000" d="M750.2422,-1354.8617C749.4249,-1343.0107 746.8626,-1305.8578 745.453,-1285.4184"/>
<polygon fill="#000000" stroke="#000000" points="748.93,-1284.963 744.7502,-1275.2275 741.9466,-1285.4447 748.93,-1284.963"/>
</g>
<!-- p36 -->
<g id="node46" class="node">
<title>p36</title>
<ellipse fill="none" stroke="#000000" cx="741.5" cy="-1184.6" rx="3.5" ry="3.5"/>
<text text-anchor="middle" x="724.5" y="-1191.9" font-family="Times,serif" font-size="14.00" fill="#000000">view</text>
</g>
<!-- p35&#45;&gt;p36 -->
<g id="edge48" class="edge">
<title>p35&#45;&gt;p36</title>
<path fill="none" stroke="#000000" d="M744.3711,-1267.8617C743.9624,-1256.0107 742.6813,-1218.8578 741.9765,-1198.4184"/>
<polygon fill="#000000" stroke="#000000" points="745.4677,-1198.1009 741.6251,-1188.2275 738.4719,-1198.3422 745.4677,-1198.1009"/>
</g>
<!-- p37 -->
<g id="node47" class="node">
<title>p37</title>
<ellipse fill="none" stroke="#000000" cx="721.5" cy="-1097.6" rx="3.5" ry="3.5"/>
<text text-anchor="middle" x="707" y="-1104.9" font-family="Times,serif" font-size="14.00" fill="#000000">into</text>
</g>
<!-- p36&#45;&gt;p37 -->
<g id="edge49" class="edge">
<title>p36&#45;&gt;p37</title>
<path fill="none" stroke="#000000" d="M740.6406,-1180.8617C737.9034,-1168.9548 729.2947,-1131.5068 724.6104,-1111.1303"/>
<polygon fill="#000000" stroke="#000000" points="727.9854,-1110.1891 722.3339,-1101.2275 721.1634,-1111.7575 727.9854,-1110.1891"/>
</g>
<!-- p93 -->
<g id="node48" class="node">
<title>p93</title>
<ellipse fill="none" stroke="#000000" cx="979.5" cy="-1010.6" rx="3.5" ry="3.5"/>
<text text-anchor="middle" x="965" y="-1017.9" font-family="Times,serif" font-size="14.00" fill="#000000">mix</text>
</g>
<!-- p37&#45;&gt;p93 -->
<g id="edge50" class="edge">
<title>p37&#45;&gt;p93</title>
<path fill="none" stroke="#000000" d="M718.7546,-1094.9669C710.4966,-1087.0323 686.3964,-1063.764 685.5,-1061.6 682.9488,-1055.4408 680.9504,-1051.4729 685.5,-1046.6 705.4135,-1025.2714 919.5428,-1036.9578 947.5,-1028.6 954.8285,-1026.4092 962.3178,-1022.3171 968.2069,-1018.5877"/>
<polygon fill="#000000" stroke="#000000" points="970.4372,-1021.3019 976.6986,-1012.7552 966.474,-1015.5319 970.4372,-1021.3019"/>
<text text-anchor="middle" x="739.5" y="-1050.4" font-family="Times,serif" font-size="14.00" fill="#000000">WGA_geneFQBins</text>
</g>
<!-- p94 -->
<g id="node96" class="node">
<title>p94</title>
<ellipse fill="none" stroke="#000000" cx="1099.5" cy="-567.1" rx="3.5" ry="3.5"/>
<text text-anchor="middle" x="1072" y="-574.4" font-family="Times,serif" font-size="14.00" fill="#000000">combine</text>
</g>
<!-- p93&#45;&gt;p94 -->
<g id="edge109" class="edge">
<title>p93&#45;&gt;p94</title>
<path fill="none" stroke="#000000" d="M979.5,-1006.9532C979.5,-995.0008 979.5,-955.9229 979.5,-923.6 979.5,-923.6 979.5,-923.6 979.5,-639.6 979.5,-590.3924 1054.3358,-573.6904 1085.8112,-568.8418"/>
<polygon fill="#000000" stroke="#000000" points="1086.3386,-572.3024 1095.7771,-567.4892 1085.3972,-565.3659 1086.3386,-572.3024"/>
<text text-anchor="middle" x="1021" y="-756.4" font-family="Times,serif" font-size="14.00" fill="#000000">fqGeneBinMix</text>
</g>
<!-- p40 -->
<g id="node50" class="node">
<title>p40</title>
<ellipse fill="none" stroke="#000000" cx="902.5" cy="-1271.6" rx="83.6854" ry="18"/>
<text text-anchor="middle" x="902.5" y="-1267.9" font-family="Times,serif" font-size="14.00" fill="#000000">nanoindexremapcuts</text>
</g>
<!-- p39&#45;&gt;p40 -->
<g id="edge52" class="edge">
<title>p39&#45;&gt;p40</title>
<path fill="none" stroke="#000000" d="M902.5,-1340.5735C902.5,-1328.7918 902.5,-1313.1607 902.5,-1299.7581"/>
<polygon fill="#000000" stroke="#000000" points="906.0001,-1299.6033 902.5,-1289.6034 899.0001,-1299.6034 906.0001,-1299.6033"/>
<text text-anchor="middle" x="948.5" y="-1311.4" font-family="Times,serif" font-size="14.00" fill="#000000">rebinRemapCuts</text>
</g>
<!-- p41 -->
<g id="node51" class="node">
<title>p41</title>
<ellipse fill="#000000" stroke="#000000" cx="779.5" cy="-1184.6" rx="1.8" ry="1.8"/>
</g>
<!-- p40&#45;&gt;p41 -->
<g id="edge53" class="edge">
<title>p40&#45;&gt;p41</title>
<path fill="none" stroke="#000000" d="M838.5796,-1259.896C813.1632,-1253.841 788.1352,-1245.6075 780.5,-1235.6 772.0061,-1224.4669 773.6236,-1207.6294 776.102,-1196.382"/>
<polygon fill="#000000" stroke="#000000" points="779.564,-1196.994 778.8527,-1186.423 772.8166,-1195.1303 779.564,-1196.994"/>
<text text-anchor="middle" x="830.5" y="-1224.4" font-family="Times,serif" font-size="14.00" fill="#000000">indexedremapcuts</text>
</g>
<!-- p79 -->
<g id="node52" class="node">
<title>p79</title>
<ellipse fill="none" stroke="#000000" cx="1073.5" cy="-1184.6" rx="3.5" ry="3.5"/>
<text text-anchor="middle" x="1059" y="-1191.9" font-family="Times,serif" font-size="14.00" fill="#000000">mix</text>
</g>
<!-- p40&#45;&gt;p79 -->
<g id="edge54" class="edge">
<title>p40&#45;&gt;p79</title>
<path fill="none" stroke="#000000" d="M919.0219,-1253.8088C930.2717,-1242.7082 946.058,-1228.9841 962.5,-1220.6 992.6539,-1205.224 1004.6545,-1214.0693 1036.5,-1202.6 1044.9682,-1199.5501 1054.0637,-1195.142 1061.1176,-1191.4515"/>
<polygon fill="#000000" stroke="#000000" points="1063.0286,-1194.3963 1070.1382,-1186.5411 1059.6818,-1188.2481 1063.0286,-1194.3963"/>
<text text-anchor="middle" x="1015.5" y="-1224.4" font-family="Times,serif" font-size="14.00" fill="#000000">indexedremapcuts2</text>
</g>
<!-- p97 -->
<g id="node85" class="node">
<title>p97</title>
<ellipse fill="none" stroke="#000000" cx="1164.5" cy="-392.1" rx="3.5" ry="3.5"/>
<text text-anchor="middle" x="1137" y="-399.4" font-family="Times,serif" font-size="14.00" fill="#000000">combine</text>
</g>
<!-- p79&#45;&gt;p97 -->
<g id="edge94" class="edge">
<title>p79&#45;&gt;p97</title>
<path fill="none" stroke="#000000" d="M1076.9607,-1183.3247C1098.5195,-1175.2762 1213.5,-1130.795 1213.5,-1097.6 1213.5,-1097.6 1213.5,-1097.6 1213.5,-464.6 1213.5,-441.0948 1213.6111,-432.3982 1199.5,-413.6 1193.8622,-406.0896 1184.7632,-400.6168 1177.2558,-397.0727"/>
<polygon fill="#000000" stroke="#000000" points="1178.5628,-393.8258 1167.9838,-393.2474 1175.8931,-400.2967 1178.5628,-393.8258"/>
<text text-anchor="middle" x="1234.5" y="-723.4" font-family="Times,serif" font-size="14.00" fill="#000000">indexes</text>
</g>
<!-- p44 -->
<g id="node54" class="node">
<title>p44</title>
<ellipse fill="none" stroke="#000000" cx="424.5" cy="-1445.6" rx="3.5" ry="3.5"/>
<text text-anchor="middle" x="407.5" y="-1452.9" font-family="Times,serif" font-size="14.00" fill="#000000">view</text>
</g>
<!-- p43&#45;&gt;p44 -->
<g id="edge56" class="edge">
<title>p43&#45;&gt;p44</title>
<path fill="none" stroke="#000000" d="M510.9982,-1532.0073C498.9403,-1529.778 458.7716,-1520.757 438.5,-1496.6 429.7519,-1486.1752 426.4407,-1470.7258 425.2032,-1459.5647"/>
<polygon fill="#000000" stroke="#000000" points="428.6747,-1459.0229 424.5079,-1449.2819 421.6906,-1459.4953 428.6747,-1459.0229"/>
</g>
<!-- p45 -->
<g id="node55" class="node">
<title>p45</title>
<ellipse fill="#000000" stroke="#000000" cx="424.5" cy="-1358.6" rx="1.8" ry="1.8"/>
</g>
<!-- p44&#45;&gt;p45 -->
<g id="edge57" class="edge">
<title>p44&#45;&gt;p45</title>
<path fill="none" stroke="#000000" d="M424.5,-1441.8617C424.5,-1429.6474 424.5,-1390.5558 424.5,-1370.5868"/>
<polygon fill="#000000" stroke="#000000" points="428.0001,-1370.5391 424.5,-1360.5391 421.0001,-1370.5391 428.0001,-1370.5391"/>
<text text-anchor="middle" x="493.5" y="-1398.4" font-family="Times,serif" font-size="14.00" fill="#000000">assemblyPolishWindows</text>
</g>
<!-- p55 -->
<g id="node57" class="node">
<title>p55</title>
<ellipse fill="none" stroke="#000000" cx="261.5" cy="-1706.6" rx="3.5" ry="3.5"/>
<text text-anchor="middle" x="234" y="-1713.9" font-family="Times,serif" font-size="14.00" fill="#000000">combine</text>
</g>
<!-- p47&#45;&gt;p55 -->
<g id="edge59" class="edge">
<title>p47&#45;&gt;p55</title>
<path fill="none" stroke="#000000" d="M226.5907,-1796.9446C231.2759,-1791.4026 236.0176,-1785.041 239.5,-1778.6 249.7957,-1759.557 255.978,-1735.0173 259.0598,-1720.0642"/>
<polygon fill="#000000" stroke="#000000" points="262.527,-1720.5651 260.9416,-1710.0895 255.6483,-1719.2673 262.527,-1720.5651"/>
<text text-anchor="middle" x="279.5" y="-1756.9" font-family="Times,serif" font-size="14.00" fill="#000000">pb6_out1</text>
</g>
<!-- p48 -->
<g id="node58" class="node">
<title>p48</title>
<ellipse fill="#000000" stroke="#000000" cx="156.5" cy="-1706.6" rx="1.8" ry="1.8"/>
</g>
<!-- p47&#45;&gt;p48 -->
<g id="edge60" class="edge">
<title>p47&#45;&gt;p48</title>
<path fill="none" stroke="#000000" d="M174.2228,-1799.4129C165.9628,-1794.0883 158.2076,-1787.2228 153.5,-1778.6 143.1136,-1759.5756 148.1593,-1733.3249 152.5066,-1718.3421"/>
<polygon fill="#000000" stroke="#000000" points="155.9309,-1719.1339 155.7416,-1708.5408 149.2836,-1716.9398 155.9309,-1719.1339"/>
<text text-anchor="middle" x="194.5" y="-1756.9" font-family="Times,serif" font-size="14.00" fill="#000000">gene_windows</text>
</g>
<!-- p62 -->
<g id="node59" class="node">
<title>p62</title>
<ellipse fill="none" stroke="#000000" cx="55.5" cy="-1663.1" rx="3.5" ry="3.5"/>
<text text-anchor="middle" x="26" y="-1670.4" font-family="Times,serif" font-size="14.00" fill="#000000">transpose</text>
</g>
<!-- p47&#45;&gt;p62 -->
<g id="edge61" class="edge">
<title>p47&#45;&gt;p62</title>
<path fill="none" stroke="#000000" d="M150.3886,-1807.474C114.329,-1801.808 73.0165,-1792.4958 61.5,-1778.6 37.1718,-1749.2457 45.6313,-1699.8969 51.6247,-1676.3618"/>
<polygon fill="#000000" stroke="#000000" points="55.077,-1677.0136 54.4125,-1666.4396 48.3379,-1675.1201 55.077,-1677.0136"/>
<text text-anchor="middle" x="102.5" y="-1756.9" font-family="Times,serif" font-size="14.00" fill="#000000">gene_windws2</text>
</g>
<!-- p56 -->
<g id="node65" class="node">
<title>p56</title>
<ellipse fill="none" stroke="#000000" cx="272.5" cy="-1619.6" rx="38.1938" ry="18"/>
<text text-anchor="middle" x="272.5" y="-1615.9" font-family="Times,serif" font-size="14.00" fill="#000000">cutBam</text>
</g>
<!-- p55&#45;&gt;p56 -->
<g id="edge68" class="edge">
<title>p55&#45;&gt;p56</title>
<path fill="none" stroke="#000000" d="M261.9727,-1702.8617C263.1633,-1693.445 266.3738,-1668.053 268.9389,-1647.7647"/>
<polygon fill="#000000" stroke="#000000" points="272.4253,-1648.0922 270.2074,-1637.7322 265.4806,-1647.2141 272.4253,-1648.0922"/>
</g>
<!-- p63 -->
<g id="node71" class="node">
<title>p63</title>
<ellipse fill="none" stroke="#000000" cx="128.5" cy="-1576.1" rx="3.5" ry="3.5"/>
<text text-anchor="middle" x="112.5" y="-1583.4" font-family="Times,serif" font-size="14.00" fill="#000000">map</text>
</g>
<!-- p62&#45;&gt;p63 -->
<g id="edge75" class="edge">
<title>p62&#45;&gt;p63</title>
<path fill="none" stroke="#000000" d="M57.9288,-1660.2054C67.4535,-1648.854 102.5573,-1607.018 119.386,-1586.9619"/>
<polygon fill="#000000" stroke="#000000" points="122.2405,-1589.005 125.9872,-1579.0947 116.8782,-1584.5055 122.2405,-1589.005"/>
</g>
<!-- p50&#45;&gt;p55 -->
<g id="edge64" class="edge">
<title>p50&#45;&gt;p55</title>
<path fill="none" stroke="#000000" d="M396.9857,-1808.6618C377.9426,-1803.2544 352.1085,-1793.7586 333.5,-1778.6 318.591,-1766.455 323.8435,-1755.4079 309.5,-1742.6 296.4525,-1730.9493 287.7635,-1736.0041 274.5,-1724.6 272.3791,-1722.7764 270.416,-1720.5404 268.6918,-1718.2724"/>
<polygon fill="#000000" stroke="#000000" points="271.5373,-1716.2278 263.1566,-1709.746 265.666,-1720.0393 271.5373,-1716.2278"/>
<text text-anchor="middle" x="365" y="-1756.9" font-family="Times,serif" font-size="14.00" fill="#000000">fullAligned</text>
</g>
<!-- p51 -->
<g id="node61" class="node">
<title>p51</title>
<ellipse fill="none" stroke="#000000" cx="344.5" cy="-1706.6" rx="61.1893" ry="18"/>
<text text-anchor="middle" x="344.5" y="-1702.9" font-family="Times,serif" font-size="14.00" fill="#000000">consensusCall</text>
</g>
<!-- p50&#45;&gt;p51 -->
<g id="edge63" class="edge">
<title>p50&#45;&gt;p51</title>
<path fill="none" stroke="#000000" d="M420.4948,-1796.449C417.9991,-1780.8527 412.4917,-1758.4399 400.5,-1742.6 396.2815,-1737.0278 390.9315,-1732.0794 385.2198,-1727.7711"/>
<polygon fill="#000000" stroke="#000000" points="386.9095,-1724.686 376.6825,-1721.9186 382.9516,-1730.4596 386.9095,-1724.686"/>
<text text-anchor="middle" x="436.5" y="-1756.9" font-family="Times,serif" font-size="14.00" fill="#000000">aligned</text>
</g>
<!-- p53 -->
<g id="node62" class="node">
<title>p53</title>
<ellipse fill="none" stroke="#000000" cx="484.5" cy="-1706.6" rx="60.3893" ry="18"/>
<text text-anchor="middle" x="484.5" y="-1702.9" font-family="Times,serif" font-size="14.00" fill="#000000">genomeDepth</text>
</g>
<!-- p50&#45;&gt;p53 -->
<g id="edge65" class="edge">
<title>p50&#45;&gt;p53</title>
<path fill="none" stroke="#000000" d="M441.4147,-1801.7371C449.2416,-1795.5582 457.8016,-1787.549 463.5,-1778.6 471.9154,-1765.3842 477.0594,-1748.6851 480.148,-1734.6971"/>
<polygon fill="#000000" stroke="#000000" points="483.632,-1735.1191 482.1294,-1724.6313 476.7638,-1733.767 483.632,-1735.1191"/>
<text text-anchor="middle" x="501" y="-1756.9" font-family="Times,serif" font-size="14.00" fill="#000000">aligned2</text>
</g>
<!-- p52 -->
<g id="node63" class="node">
<title>p52</title>
<ellipse fill="#000000" stroke="#000000" cx="344.5" cy="-1619.6" rx="1.8" ry="1.8"/>
</g>
<!-- p51&#45;&gt;p52 -->
<g id="edge66" class="edge">
<title>p51&#45;&gt;p52</title>
<path fill="none" stroke="#000000" d="M344.5,-1688.5735C344.5,-1671.502 344.5,-1646.3487 344.5,-1631.6035"/>
<polygon fill="#000000" stroke="#000000" points="348.0001,-1631.5185 344.5,-1621.5185 341.0001,-1631.5185 348.0001,-1631.5185"/>
<text text-anchor="middle" x="385" y="-1659.4" font-family="Times,serif" font-size="14.00" fill="#000000">consensusSeqs</text>
</g>
<!-- p54 -->
<g id="node64" class="node">
<title>p54</title>
<ellipse fill="#000000" stroke="#000000" cx="475.5" cy="-1619.6" rx="1.8" ry="1.8"/>
</g>
<!-- p53&#45;&gt;p54 -->
<g id="edge67" class="edge">
<title>p53&#45;&gt;p54</title>
<path fill="none" stroke="#000000" d="M479.7189,-1688.4072C478.4302,-1682.7428 477.2001,-1676.4485 476.5,-1670.6 474.9192,-1657.3939 474.849,-1642.1298 475.0611,-1631.7677"/>
<polygon fill="#000000" stroke="#000000" points="478.5663,-1631.6655 475.3991,-1621.5552 471.5701,-1631.4339 478.5663,-1631.6655"/>
<text text-anchor="middle" x="517.5" y="-1659.4" font-family="Times,serif" font-size="14.00" fill="#000000">genomeDepths</text>
</g>
<!-- p56&#45;&gt;p59 -->
<g id="edge69" class="edge">
<title>p56&#45;&gt;p59</title>
<path fill="none" stroke="#000000" d="M289.4687,-1603.3155C295.0192,-1597.4389 300.927,-1590.5373 305.5,-1583.6 313.4233,-1571.5802 319.8818,-1556.3827 323.9156,-1545.7165"/>
<polygon fill="#000000" stroke="#000000" points="327.315,-1546.6047 327.3884,-1536.0102 320.7241,-1544.2465 327.315,-1546.6047"/>
<text text-anchor="middle" x="329" y="-1572.4" font-family="Times,serif" font-size="14.00" fill="#000000">cuts1</text>
</g>
<!-- p58 -->
<g id="node66" class="node">
<title>p58</title>
<ellipse fill="#000000" stroke="#000000" cx="273.5" cy="-1532.6" rx="1.8" ry="1.8"/>
</g>
<!-- p56&#45;&gt;p58 -->
<g id="edge70" class="edge">
<title>p56&#45;&gt;p58</title>
<path fill="none" stroke="#000000" d="M272.7072,-1601.5735C272.9034,-1584.502 273.1925,-1559.3487 273.362,-1544.6035"/>
<polygon fill="#000000" stroke="#000000" points="276.8627,-1544.5581 273.4779,-1534.5185 269.8631,-1544.4776 276.8627,-1544.5581"/>
<text text-anchor="middle" x="288" y="-1572.4" font-family="Times,serif" font-size="14.00" fill="#000000">cuts2</text>
</g>
<!-- p57 -->
<g id="node67" class="node">
<title>p57</title>
<ellipse fill="#000000" stroke="#000000" cx="195.5" cy="-1532.6" rx="1.8" ry="1.8"/>
</g>
<!-- p56&#45;&gt;p57 -->
<g id="edge71" class="edge">
<title>p56&#45;&gt;p57</title>
<path fill="none" stroke="#000000" d="M244.5905,-1607.1825C233.9827,-1601.3117 222.5324,-1593.4127 214.5,-1583.6 205.1392,-1572.1644 200.1244,-1555.6652 197.6392,-1544.5584"/>
<polygon fill="#000000" stroke="#000000" points="201.0163,-1543.5755 195.7404,-1534.3877 194.1351,-1544.8602 201.0163,-1543.5755"/>
<text text-anchor="middle" x="242" y="-1572.4" font-family="Times,serif" font-size="14.00" fill="#000000">cutDepths</text>
</g>
<!-- p61 -->
<g id="node69" class="node">
<title>p61</title>
<ellipse fill="none" stroke="#000000" cx="328.5" cy="-1358.6" rx="61.99" ry="18"/>
<text text-anchor="middle" x="328.5" y="-1354.9" font-family="Times,serif" font-size="14.00" fill="#000000">nanoindexcuts</text>
</g>
<!-- p60&#45;&gt;p61 -->
<g id="edge73" class="edge">
<title>p60&#45;&gt;p61</title>
<path fill="none" stroke="#000000" d="M328.5,-1427.5735C328.5,-1415.7918 328.5,-1400.1607 328.5,-1386.7581"/>
<polygon fill="#000000" stroke="#000000" points="332.0001,-1386.6033 328.5,-1376.6034 325.0001,-1386.6034 332.0001,-1386.6033"/>
<text text-anchor="middle" x="355" y="-1398.4" font-family="Times,serif" font-size="14.00" fill="#000000">rebinCuts</text>
</g>
<!-- p65 -->
<g id="node70" class="node">
<title>p65</title>
<ellipse fill="none" stroke="#000000" cx="328.5" cy="-1271.6" rx="3.5" ry="3.5"/>
<text text-anchor="middle" x="301" y="-1278.9" font-family="Times,serif" font-size="14.00" fill="#000000">combine</text>
</g>
<!-- p61&#45;&gt;p65 -->
<g id="edge74" class="edge">
<title>p61&#45;&gt;p65</title>
<path fill="none" stroke="#000000" d="M328.5,-1340.5735C328.5,-1324.0868 328.5,-1300.0625 328.5,-1285.1548"/>
<polygon fill="#000000" stroke="#000000" points="332.0001,-1285.142 328.5,-1275.142 325.0001,-1285.1421 332.0001,-1285.142"/>
<text text-anchor="middle" x="361" y="-1311.4" font-family="Times,serif" font-size="14.00" fill="#000000">indexedcuts</text>
</g>
<!-- p66 -->
<g id="node73" class="node">
<title>p66</title>
<ellipse fill="none" stroke="#000000" cx="384.5" cy="-1184.6" rx="57.6901" ry="18"/>
<text text-anchor="middle" x="384.5" y="-1180.9" font-family="Times,serif" font-size="14.00" fill="#000000">polishRegion</text>
</g>
<!-- p65&#45;&gt;p66 -->
<g id="edge78" class="edge">
<title>p65&#45;&gt;p66</title>
<path fill="none" stroke="#000000" d="M330.6269,-1268.2957C336.6405,-1258.9532 354.2028,-1231.6689 367.6566,-1210.7674"/>
<polygon fill="#000000" stroke="#000000" points="370.6559,-1212.5743 373.1254,-1202.2713 364.7699,-1208.7855 370.6559,-1212.5743"/>
</g>
<!-- p64 -->
<g id="node72" class="node">
<title>p64</title>
<ellipse fill="none" stroke="#000000" cx="181.5" cy="-1489.1" rx="3.5" ry="3.5"/>
<text text-anchor="middle" x="164.5" y="-1496.4" font-family="Times,serif" font-size="14.00" fill="#000000">view</text>
</g>
<!-- p63&#45;&gt;p64 -->
<g id="edge76" class="edge">
<title>p63&#45;&gt;p64</title>
<path fill="none" stroke="#000000" d="M130.5129,-1572.7957C137.6293,-1561.1142 161.8338,-1521.3823 174.1589,-1501.1504"/>
<polygon fill="#000000" stroke="#000000" points="177.2715,-1502.7686 179.485,-1492.4076 171.2934,-1499.1267 177.2715,-1502.7686"/>
</g>
<!-- p64&#45;&gt;p65 -->
<g id="edge77" class="edge">
<title>p64&#45;&gt;p65</title>
<path fill="none" stroke="#000000" d="M182.784,-1485.6287C189.1524,-1468.6725 218.6034,-1393.2416 257.5,-1340.6 275.5989,-1316.1055 302.6569,-1292.4634 317.6017,-1280.2279"/>
<polygon fill="#000000" stroke="#000000" points="319.8373,-1282.9216 325.4575,-1273.9403 315.4631,-1277.4565 319.8373,-1282.9216"/>
<text text-anchor="middle" x="267.5" y="-1398.4" font-family="Times,serif" font-size="14.00" fill="#000000">polishWindows</text>
</g>
<!-- p67 -->
<g id="node74" class="node">
<title>p67</title>
<ellipse fill="none" stroke="#000000" cx="398.5" cy="-1097.6" rx="118.0794" ry="18"/>
<text text-anchor="middle" x="398.5" y="-1093.9" font-family="Times,serif" font-size="14.00" fill="#000000">makePolishRegionsConsensus</text>
</g>
<!-- p66&#45;&gt;p67 -->
<g id="edge79" class="edge">
<title>p66&#45;&gt;p67</title>
<path fill="none" stroke="#000000" d="M387.4008,-1166.5735C389.2967,-1154.7918 391.8121,-1139.1607 393.9688,-1125.7581"/>
<polygon fill="#000000" stroke="#000000" points="397.4696,-1126.0324 395.6029,-1115.6034 390.5585,-1124.9203 397.4696,-1126.0324"/>
<text text-anchor="middle" x="435" y="-1137.4" font-family="Times,serif" font-size="14.00" fill="#000000">polishedRegion</text>
</g>
<!-- p67&#45;&gt;p87 -->
<g id="edge80" class="edge">
<title>p67&#45;&gt;p87</title>
<path fill="none" stroke="#000000" d="M441.1694,-1080.7103C466.9545,-1070.6048 500.5255,-1057.6255 530.5,-1046.6 562.5952,-1034.7945 600.646,-1021.7364 620.2914,-1015.0633"/>
<polygon fill="#000000" stroke="#000000" points="621.5772,-1018.3233 629.9272,-1011.8018 619.3329,-1011.6928 621.5772,-1018.3233"/>
<text text-anchor="middle" x="566.5" y="-1050.4" font-family="Times,serif" font-size="14.00" fill="#000000">pregionscons</text>
</g>
<!-- p69 -->
<g id="node75" class="node">
<title>p69</title>
<ellipse fill="none" stroke="#000000" cx="324.5" cy="-1010.6" rx="63.8893" ry="18"/>
<text text-anchor="middle" x="324.5" y="-1006.9" font-family="Times,serif" font-size="14.00" fill="#000000">getRefVariants</text>
</g>
<!-- p67&#45;&gt;p69 -->
<g id="edge81" class="edge">
<title>p67&#45;&gt;p69</title>
<path fill="none" stroke="#000000" d="M350.0862,-1081.0277C341.6518,-1076.0449 333.8742,-1069.6784 328.5,-1061.6 324.171,-1055.0928 322.3456,-1047.0329 321.814,-1039.2568"/>
<polygon fill="#000000" stroke="#000000" points="325.3131,-1038.9887 321.7775,-1029.0012 318.3132,-1039.0137 325.3131,-1038.9887"/>
<text text-anchor="middle" x="368" y="-1050.4" font-family="Times,serif" font-size="14.00" fill="#000000">pregionscons2</text>
</g>
<!-- p68 -->
<g id="node76" class="node">
<title>p68</title>
<ellipse fill="#000000" stroke="#000000" cx="426.5" cy="-1010.6" rx="1.8" ry="1.8"/>
</g>
<!-- p67&#45;&gt;p68 -->
<g id="edge82" class="edge">
<title>p67&#45;&gt;p68</title>
<path fill="none" stroke="#000000" d="M404.3016,-1079.5735C409.852,-1062.3278 418.0567,-1036.8345 422.781,-1022.1554"/>
<polygon fill="#000000" stroke="#000000" points="426.1505,-1023.11 425.8825,-1012.5185 419.4871,-1020.9654 426.1505,-1023.11"/>
<text text-anchor="middle" x="439.5" y="-1050.4" font-family="Times,serif" font-size="14.00" fill="#000000">mapVcfs</text>
</g>
<!-- p70 -->
<g id="node77" class="node">
<title>p70</title>
<ellipse fill="#000000" stroke="#000000" cx="324.5" cy="-923.6" rx="1.8" ry="1.8"/>
</g>
<!-- p69&#45;&gt;p70 -->
<g id="edge83" class="edge">
<title>p69&#45;&gt;p70</title>
<path fill="none" stroke="#000000" d="M324.5,-992.5735C324.5,-975.502 324.5,-950.3487 324.5,-935.6035"/>
<polygon fill="#000000" stroke="#000000" points="328.0001,-935.5185 324.5,-925.5185 321.0001,-935.5185 328.0001,-935.5185"/>
<text text-anchor="middle" x="355" y="-963.4" font-family="Times,serif" font-size="14.00" fill="#000000">refVariants</text>
</g>
<!-- p73 -->
<g id="node79" class="node">
<title>p73</title>
<ellipse fill="none" stroke="#000000" cx="1087.5" cy="-1619.6" rx="44.393" ry="18"/>
<text text-anchor="middle" x="1087.5" y="-1615.9" font-family="Times,serif" font-size="14.00" fill="#000000">binGenes</text>
</g>
<!-- p72&#45;&gt;p73 -->
<g id="edge85" class="edge">
<title>p72&#45;&gt;p73</title>
<path fill="none" stroke="#000000" d="M1087.5,-1688.5735C1087.5,-1676.7918 1087.5,-1661.1607 1087.5,-1647.7581"/>
<polygon fill="#000000" stroke="#000000" points="1091.0001,-1647.6033 1087.5,-1637.6034 1084.0001,-1647.6034 1091.0001,-1647.6033"/>
<text text-anchor="middle" x="1116.5" y="-1659.4" font-family="Times,serif" font-size="14.00" fill="#000000">geneBams</text>
</g>
<!-- p73&#45;&gt;p74 -->
<g id="edge87" class="edge">
<title>p73&#45;&gt;p74</title>
<path fill="none" stroke="#000000" d="M1096.8514,-1601.6625C1102.9119,-1591.1855 1111.5237,-1578.1837 1121.5,-1568.6 1135.4129,-1555.2346 1155.1223,-1544.4574 1167.8592,-1538.2893"/>
<polygon fill="#000000" stroke="#000000" points="1169.6079,-1541.3375 1177.2299,-1533.9784 1166.6823,-1534.9781 1169.6079,-1541.3375"/>
<text text-anchor="middle" x="1160.5" y="-1572.4" font-family="Times,serif" font-size="14.00" fill="#000000">binnedGenes2</text>
</g>
<!-- p80 -->
<g id="node80" class="node">
<title>p80</title>
<ellipse fill="none" stroke="#000000" cx="1001.5" cy="-1532.6" rx="3.5" ry="3.5"/>
<text text-anchor="middle" x="972" y="-1539.9" font-family="Times,serif" font-size="14.00" fill="#000000">transpose</text>
</g>
<!-- p73&#45;&gt;p80 -->
<g id="edge86" class="edge">
<title>p73&#45;&gt;p80</title>
<path fill="none" stroke="#000000" d="M1046.6209,-1612.3533C1030.0858,-1607.2144 1012.5589,-1598.4656 1002.5,-1583.6 995.0718,-1572.6223 995.9877,-1557.048 998.0299,-1546.0044"/>
<polygon fill="#000000" stroke="#000000" points="1001.513,-1546.4867 1000.4295,-1535.9474 994.7041,-1544.862 1001.513,-1546.4867"/>
<text text-anchor="middle" x="1038" y="-1572.4" font-family="Times,serif" font-size="14.00" fill="#000000">binnedGenes</text>
</g>
<!-- p76 -->
<g id="node81" class="node">
<title>p76</title>
<ellipse fill="none" stroke="#000000" cx="1088.5" cy="-1358.6" rx="3.5" ry="3.5"/>
<text text-anchor="middle" x="1061" y="-1365.9" font-family="Times,serif" font-size="14.00" fill="#000000">combine</text>
</g>
<!-- p73&#45;&gt;p76 -->
<g id="edge88" class="edge">
<title>p73&#45;&gt;p76</title>
<path fill="none" stroke="#000000" d="M1087.5703,-1601.247C1087.7601,-1551.7175 1088.2796,-1416.1197 1088.4472,-1372.3901"/>
<polygon fill="#000000" stroke="#000000" points="1091.948,-1372.143 1088.4865,-1362.1296 1084.9481,-1372.1161 1091.948,-1372.143"/>
<text text-anchor="middle" x="1126.5" y="-1485.4" font-family="Times,serif" font-size="14.00" fill="#000000">binnedGenes3</text>
</g>
<!-- p81 -->
<g id="node86" class="node">
<title>p81</title>
<ellipse fill="none" stroke="#000000" cx="1007.5" cy="-1445.6" rx="3.5" ry="3.5"/>
<text text-anchor="middle" x="991.5" y="-1452.9" font-family="Times,serif" font-size="14.00" fill="#000000">map</text>
</g>
<!-- p80&#45;&gt;p81 -->
<g id="edge95" class="edge">
<title>p80&#45;&gt;p81</title>
<path fill="none" stroke="#000000" d="M1001.7578,-1528.8617C1002.5751,-1517.0107 1005.1374,-1479.8578 1006.547,-1459.4184"/>
<polygon fill="#000000" stroke="#000000" points="1010.0534,-1459.4447 1007.2498,-1449.2275 1003.07,-1458.963 1010.0534,-1459.4447"/>
</g>
<!-- p77 -->
<g id="node83" class="node">
<title>p77</title>
<ellipse fill="none" stroke="#000000" cx="1088.5" cy="-1271.6" rx="47.3916" ry="18"/>
<text text-anchor="middle" x="1088.5" y="-1267.9" font-family="Times,serif" font-size="14.00" fill="#000000">nanoindex</text>
</g>
<!-- p76&#45;&gt;p77 -->
<g id="edge91" class="edge">
<title>p76&#45;&gt;p77</title>
<path fill="none" stroke="#000000" d="M1088.5,-1354.8617C1088.5,-1345.445 1088.5,-1320.053 1088.5,-1299.7647"/>
<polygon fill="#000000" stroke="#000000" points="1092.0001,-1299.7321 1088.5,-1289.7322 1085.0001,-1299.7322 1092.0001,-1299.7321"/>
</g>
<!-- p75&#45;&gt;p76 -->
<g id="edge90" class="edge">
<title>p75&#45;&gt;p76</title>
<path fill="none" stroke="#000000" d="M1151.4608,-1428.8255C1135.6276,-1411.1654 1111.192,-1383.9103 1097.8985,-1369.0829"/>
<polygon fill="#000000" stroke="#000000" points="1100.2556,-1366.4689 1090.9741,-1361.3596 1095.0436,-1371.1417 1100.2556,-1366.4689"/>
<text text-anchor="middle" x="1148.5" y="-1398.4" font-family="Times,serif" font-size="14.00" fill="#000000">rebins</text>
</g>
<!-- p77&#45;&gt;p79 -->
<g id="edge93" class="edge">
<title>p77&#45;&gt;p79</title>
<path fill="none" stroke="#000000" d="M1080.0984,-1253.658C1077.8417,-1248.0039 1075.6969,-1241.6523 1074.5,-1235.6 1072.057,-1223.2473 1072.0193,-1208.8834 1072.4686,-1198.5532"/>
<polygon fill="#000000" stroke="#000000" points="1075.9751,-1198.5648 1073.1293,-1188.3593 1068.9898,-1198.112 1075.9751,-1198.5648"/>
<text text-anchor="middle" x="1099.5" y="-1224.4" font-family="Times,serif" font-size="14.00" fill="#000000">indexed2</text>
</g>
<!-- p78 -->
<g id="node84" class="node">
<title>p78</title>
<ellipse fill="#000000" stroke="#000000" cx="1146.5" cy="-1184.6" rx="1.8" ry="1.8"/>
</g>
<!-- p77&#45;&gt;p78 -->
<g id="edge92" class="edge">
<title>p77&#45;&gt;p78</title>
<path fill="none" stroke="#000000" d="M1107.8975,-1254.8555C1113.7407,-1249.1543 1119.8339,-1242.4745 1124.5,-1235.6 1132.9075,-1223.2133 1139.2087,-1207.0938 1142.8662,-1196.3244"/>
<polygon fill="#000000" stroke="#000000" points="1146.2367,-1197.2739 1145.9133,-1186.684 1139.5622,-1195.1643 1146.2367,-1197.2739"/>
<text text-anchor="middle" x="1154" y="-1224.4" font-family="Times,serif" font-size="14.00" fill="#000000">indexed</text>
</g>
<!-- p98 -->
<g id="node99" class="node">
<title>p98</title>
<ellipse fill="none" stroke="#000000" cx="1164.5" cy="-333.6" rx="76.0865" ry="18"/>
<text text-anchor="middle" x="1164.5" y="-329.9" font-family="Times,serif" font-size="14.00" fill="#000000">polishRemapGene</text>
</g>
<!-- p97&#45;&gt;p98 -->
<g id="edge113" class="edge">
<title>p97&#45;&gt;p98</title>
<path fill="none" stroke="#000000" d="M1164.5,-388.2617C1164.5,-382.7711 1164.5,-372.1846 1164.5,-361.779"/>
<polygon fill="#000000" stroke="#000000" points="1168.0001,-361.6292 1164.5,-351.6293 1161.0001,-361.6293 1168.0001,-361.6292"/>
</g>
<!-- p82 -->
<g id="node87" class="node">
<title>p82</title>
<ellipse fill="none" stroke="#000000" cx="1009.5" cy="-1358.6" rx="3.5" ry="3.5"/>
<text text-anchor="middle" x="992.5" y="-1365.9" font-family="Times,serif" font-size="14.00" fill="#000000">filter</text>
</g>
<!-- p81&#45;&gt;p82 -->
<g id="edge96" class="edge">
<title>p81&#45;&gt;p82</title>
<path fill="none" stroke="#000000" d="M1007.5859,-1441.8617C1007.8584,-1430.0107 1008.7125,-1392.8578 1009.1823,-1372.4184"/>
<polygon fill="#000000" stroke="#000000" points="1012.6858,-1372.3053 1009.4166,-1362.2275 1005.6876,-1372.1444 1012.6858,-1372.3053"/>
</g>
<!-- p83 -->
<g id="node88" class="node">
<title>p83</title>
<ellipse fill="none" stroke="#000000" cx="1017.5" cy="-1271.6" rx="3.5" ry="3.5"/>
<text text-anchor="middle" x="1000.5" y="-1278.9" font-family="Times,serif" font-size="14.00" fill="#000000">view</text>
</g>
<!-- p82&#45;&gt;p83 -->
<g id="edge97" class="edge">
<title>p82&#45;&gt;p83</title>
<path fill="none" stroke="#000000" d="M1009.8438,-1354.8617C1010.9335,-1343.0107 1014.3499,-1305.8578 1016.2293,-1285.4184"/>
<polygon fill="#000000" stroke="#000000" points="1019.736,-1285.506 1017.1664,-1275.2275 1012.7654,-1284.865 1019.736,-1285.506"/>
</g>
<!-- p84 -->
<g id="node89" class="node">
<title>p84</title>
<ellipse fill="none" stroke="#000000" cx="1023.5" cy="-1184.6" rx="3.5" ry="3.5"/>
<text text-anchor="middle" x="1009" y="-1191.9" font-family="Times,serif" font-size="14.00" fill="#000000">into</text>
</g>
<!-- p83&#45;&gt;p84 -->
<g id="edge98" class="edge">
<title>p83&#45;&gt;p84</title>
<path fill="none" stroke="#000000" d="M1017.7578,-1267.8617C1018.5751,-1256.0107 1021.1374,-1218.8578 1022.547,-1198.4184"/>
<polygon fill="#000000" stroke="#000000" points="1026.0534,-1198.4447 1023.2498,-1188.2275 1019.07,-1197.963 1026.0534,-1198.4447"/>
</g>
<!-- p84&#45;&gt;p93 -->
<g id="edge100" class="edge">
<title>p84&#45;&gt;p93</title>
<path fill="none" stroke="#000000" d="M1024.8517,-1180.9163C1030.7351,-1164.2346 1052.7529,-1094.5133 1028.5,-1046.6 1020.9855,-1031.7545 1004.1481,-1021.5423 992.3173,-1015.8859"/>
<polygon fill="#000000" stroke="#000000" points="993.5446,-1012.6036 982.9761,-1011.8561 990.7718,-1019.031 993.5446,-1012.6036"/>
<text text-anchor="middle" x="1068.5" y="-1093.9" font-family="Times,serif" font-size="14.00" fill="#000000">geneBins2</text>
</g>
<!-- p85 -->
<g id="node90" class="node">
<title>p85</title>
<ellipse fill="none" stroke="#000000" cx="936.5" cy="-1097.6" rx="65.7887" ry="18"/>
<text text-anchor="middle" x="936.5" y="-1093.9" font-family="Times,serif" font-size="14.00" fill="#000000">assembleGenes</text>
</g>
<!-- p84&#45;&gt;p85 -->
<g id="edge99" class="edge">
<title>p84&#45;&gt;p85</title>
<path fill="none" stroke="#000000" d="M1020.3997,-1182.5462C1012.692,-1177.3641 992.2238,-1163.1324 977.5,-1148.6 969.7379,-1140.9388 962.0318,-1131.8516 955.4311,-1123.4853"/>
<polygon fill="#000000" stroke="#000000" points="958.1109,-1121.2285 949.2379,-1115.4388 952.5637,-1125.4981 958.1109,-1121.2285"/>
<text text-anchor="middle" x="1003" y="-1137.4" font-family="Times,serif" font-size="14.00" fill="#000000">geneBins</text>
</g>
<!-- p85&#45;&gt;p87 -->
<g id="edge102" class="edge">
<title>p85&#45;&gt;p87</title>
<path fill="none" stroke="#000000" d="M895.762,-1083.3417C877.0769,-1076.7711 854.6464,-1068.8403 834.5,-1061.6 816.24,-1055.0376 812.1152,-1052.0744 793.5,-1046.6 739.9659,-1030.8564 674.6252,-1018.1191 646.9311,-1013.0122"/>
<polygon fill="#000000" stroke="#000000" points="647.4972,-1009.5579 637.0335,-1011.2193 646.2495,-1016.4458 647.4972,-1009.5579"/>
<text text-anchor="middle" x="883.5" y="-1050.4" font-family="Times,serif" font-size="14.00" fill="#000000">assembledGenes2</text>
</g>
<!-- p86 -->
<g id="node91" class="node">
<title>p86</title>
<ellipse fill="#000000" stroke="#000000" cx="936.5" cy="-1010.6" rx="1.8" ry="1.8"/>
</g>
<!-- p85&#45;&gt;p86 -->
<g id="edge101" class="edge">
<title>p85&#45;&gt;p86</title>
<path fill="none" stroke="#000000" d="M936.5,-1079.5735C936.5,-1062.502 936.5,-1037.3487 936.5,-1022.6035"/>
<polygon fill="#000000" stroke="#000000" points="940.0001,-1022.5185 936.5,-1012.5185 933.0001,-1022.5185 940.0001,-1022.5185"/>
<text text-anchor="middle" x="982" y="-1050.4" font-family="Times,serif" font-size="14.00" fill="#000000">assembledGenes</text>
</g>
<!-- p89 -->
<g id="node93" class="node">
<title>p89</title>
<ellipse fill="none" stroke="#000000" cx="1075.5" cy="-836.6" rx="68.4888" ry="18"/>
<text text-anchor="middle" x="1075.5" y="-832.9" font-family="Times,serif" font-size="14.00" fill="#000000">geneparseBlast6</text>
</g>
<!-- p88&#45;&gt;p89 -->
<g id="edge104" class="edge">
<title>p88&#45;&gt;p89</title>
<path fill="none" stroke="#000000" d="M773.4011,-913.4497C833.2729,-898.2192 946.7308,-869.3571 1016.2805,-851.6646"/>
<polygon fill="#000000" stroke="#000000" points="1017.3833,-854.9956 1026.2117,-849.1382 1015.6575,-848.2117 1017.3833,-854.9956"/>
<text text-anchor="middle" x="964.5" y="-876.4" font-family="Times,serif" font-size="14.00" fill="#000000">blastOutPolish</text>
</g>
<!-- p89&#45;&gt;p90 -->
<g id="edge105" class="edge">
<title>p89&#45;&gt;p90</title>
<path fill="none" stroke="#000000" d="M1072.8359,-818.5293C1072.0884,-808.4926 1072.3948,-795.9758 1076.5,-785.6 1079.0128,-779.249 1083.8827,-773.4755 1088.4968,-769.0345"/>
<polygon fill="#000000" stroke="#000000" points="1091.0203,-771.4828 1096.3665,-762.3357 1086.483,-766.1524 1091.0203,-771.4828"/>
<text text-anchor="middle" x="1119" y="-789.4" font-family="Times,serif" font-size="14.00" fill="#000000">pb6_out_polish</text>
</g>
<!-- p92 -->
<g id="node95" class="node">
<title>p92</title>
<ellipse fill="none" stroke="#000000" cx="1099.5" cy="-639.6" rx="66.0889" ry="18"/>
<text text-anchor="middle" x="1099.5" y="-635.9" font-family="Times,serif" font-size="14.00" fill="#000000">chooseGeneRef</text>
</g>
<!-- p91&#45;&gt;p92 -->
<g id="edge107" class="edge">
<title>p91&#45;&gt;p92</title>
<path fill="none" stroke="#000000" d="M1099.5,-694.2617C1099.5,-688.7711 1099.5,-678.1846 1099.5,-667.779"/>
<polygon fill="#000000" stroke="#000000" points="1103.0001,-667.6292 1099.5,-657.6293 1096.0001,-667.6293 1103.0001,-667.6292"/>
</g>
<!-- p92&#45;&gt;p94 -->
<g id="edge108" class="edge">
<title>p92&#45;&gt;p94</title>
<path fill="none" stroke="#000000" d="M1099.5,-621.3052C1099.5,-608.7364 1099.5,-592.3149 1099.5,-580.8543"/>
<polygon fill="#000000" stroke="#000000" points="1103.0001,-580.7824 1099.5,-570.7824 1096.0001,-580.7825 1103.0001,-580.7824"/>
<text text-anchor="middle" x="1125" y="-592.4" font-family="Times,serif" font-size="14.00" fill="#000000">geneRefs</text>
</g>
<!-- p95 -->
<g id="node97" class="node">
<title>p95</title>
<ellipse fill="none" stroke="#000000" cx="1111.5" cy="-523.1" rx="3.5" ry="3.5"/>
<text text-anchor="middle" x="1094.5" y="-530.4" font-family="Times,serif" font-size="14.00" fill="#000000">filter</text>
</g>
<!-- p94&#45;&gt;p95 -->
<g id="edge110" class="edge">
<title>p94&#45;&gt;p95</title>
<path fill="none" stroke="#000000" d="M1100.4416,-563.6474C1102.0128,-557.8863 1105.2501,-546.0163 1107.818,-536.6007"/>
<polygon fill="#000000" stroke="#000000" points="1111.2067,-537.4772 1110.4613,-526.9086 1104.4534,-535.6353 1111.2067,-537.4772"/>
</g>
<!-- p96 -->
<g id="node98" class="node">
<title>p96</title>
<ellipse fill="none" stroke="#000000" cx="1114.5" cy="-464.6" rx="51.9908" ry="18"/>
<text text-anchor="middle" x="1114.5" y="-460.9" font-family="Times,serif" font-size="14.00" fill="#000000">remapGene</text>
</g>
<!-- p95&#45;&gt;p96 -->
<g id="edge111" class="edge">
<title>p95&#45;&gt;p96</title>
<path fill="none" stroke="#000000" d="M1111.6968,-519.2617C1111.9784,-513.7711 1112.5213,-503.1846 1113.0549,-492.779"/>
<polygon fill="#000000" stroke="#000000" points="1116.5586,-492.7954 1113.5754,-482.6293 1109.5678,-492.4369 1116.5586,-492.7954"/>
</g>
<!-- p96&#45;&gt;p97 -->
<g id="edge112" class="edge">
<title>p96&#45;&gt;p97</title>
<path fill="none" stroke="#000000" d="M1110.7881,-446.6332C1109.6338,-436.1457 1110.0487,-423.1433 1116.5,-413.6 1124.2362,-402.1559 1139.5913,-396.7293 1150.8591,-394.2047"/>
<polygon fill="#000000" stroke="#000000" points="1151.6737,-397.6157 1160.9277,-392.4567 1150.4763,-390.7189 1151.6737,-397.6157"/>
<text text-anchor="middle" x="1158" y="-417.4" font-family="Times,serif" font-size="14.00" fill="#000000">remappedGene</text>
</g>
<!-- p99 -->
<g id="node100" class="node">
<title>p99</title>
<ellipse fill="none" stroke="#000000" cx="1164.5" cy="-246.6" rx="133.7763" ry="18"/>
<text text-anchor="middle" x="1164.5" y="-242.9" font-family="Times,serif" font-size="14.00" fill="#000000">makePolishRemapGeneConsensus</text>
</g>
<!-- p98&#45;&gt;p99 -->
<g id="edge114" class="edge">
<title>p98&#45;&gt;p99</title>
<path fill="none" stroke="#000000" d="M1164.5,-315.5735C1164.5,-303.7918 1164.5,-288.1607 1164.5,-274.7581"/>
<polygon fill="#000000" stroke="#000000" points="1168.0001,-274.6033 1164.5,-264.6034 1161.0001,-274.6034 1168.0001,-274.6033"/>
<text text-anchor="middle" x="1221.5" y="-286.4" font-family="Times,serif" font-size="14.00" fill="#000000">polishedRemapGene</text>
</g>
<!-- p100 -->
<g id="node101" class="node">
<title>p100</title>
<ellipse fill="none" stroke="#000000" cx="1089.5" cy="-159.6" rx="92.0841" ry="18"/>
<text text-anchor="middle" x="1089.5" y="-155.9" font-family="Times,serif" font-size="14.00" fill="#000000">geneblastnRemapGene</text>
</g>
<!-- p99&#45;&gt;p100 -->
<g id="edge115" class="edge">
<title>p99&#45;&gt;p100</title>
<path fill="none" stroke="#000000" d="M1148.96,-228.5735C1138.1999,-216.0919 1123.7154,-199.2899 1111.7365,-185.3944"/>
<polygon fill="#000000" stroke="#000000" points="1114.2005,-182.8922 1105.0201,-177.6034 1108.8986,-187.4628 1114.2005,-182.8922"/>
<text text-anchor="middle" x="1156" y="-199.4" font-family="Times,serif" font-size="14.00" fill="#000000">RGpcons</text>
</g>
<!-- p103 -->
<g id="node102" class="node">
<title>p103</title>
<ellipse fill="none" stroke="#000000" cx="1240.5" cy="-159.6" rx="40.8928" ry="18"/>
<text text-anchor="middle" x="1240.5" y="-155.9" font-family="Times,serif" font-size="14.00" fill="#000000">getPenA</text>
</g>
<!-- p99&#45;&gt;p103 -->
<g id="edge116" class="edge">
<title>p99&#45;&gt;p103</title>
<path fill="none" stroke="#000000" d="M1180.2472,-228.5735C1191.4415,-215.759 1206.6138,-198.3907 1218.9325,-184.2891"/>
<polygon fill="#000000" stroke="#000000" points="1221.8612,-186.2566 1225.8042,-176.4228 1216.5894,-181.6513 1221.8612,-186.2566"/>
<text text-anchor="middle" x="1235.5" y="-199.4" font-family="Times,serif" font-size="14.00" fill="#000000">RGpcons2</text>
</g>
<!-- p101 -->
<g id="node103" class="node">
<title>p101</title>
<ellipse fill="none" stroke="#000000" cx="1089.5" cy="-72.6" rx="112.3801" ry="18"/>
<text text-anchor="middle" x="1089.5" y="-68.9" font-family="Times,serif" font-size="14.00" fill="#000000">geneparseBlast6RemapGene</text>
</g>
<!-- p100&#45;&gt;p101 -->
<g id="edge117" class="edge">
<title>p100&#45;&gt;p101</title>
<path fill="none" stroke="#000000" d="M1089.5,-141.5735C1089.5,-129.7918 1089.5,-114.1607 1089.5,-100.7581"/>
<polygon fill="#000000" stroke="#000000" points="1093.0001,-100.6033 1089.5,-90.6034 1086.0001,-100.6034 1093.0001,-100.6033"/>
<text text-anchor="middle" x="1135" y="-112.4" font-family="Times,serif" font-size="14.00" fill="#000000">blastOutRGpcon</text>
</g>
<!-- p104 -->
<g id="node105" class="node">
<title>p104</title>
<ellipse fill="#000000" stroke="#000000" cx="1240.5" cy="-72.6" rx="1.8" ry="1.8"/>
</g>
<!-- p103&#45;&gt;p104 -->
<g id="edge119" class="edge">
<title>p103&#45;&gt;p104</title>
<path fill="none" stroke="#000000" d="M1240.5,-141.5735C1240.5,-124.502 1240.5,-99.3487 1240.5,-84.6035"/>
<polygon fill="#000000" stroke="#000000" points="1244.0001,-84.5185 1240.5,-74.5185 1237.0001,-84.5185 1244.0001,-84.5185"/>
<text text-anchor="middle" x="1265.5" y="-112.4" font-family="Times,serif" font-size="14.00" fill="#000000">penAOut</text>
</g>
<!-- p102 -->
<g id="node104" class="node">
<title>p102</title>
<ellipse fill="#000000" stroke="#000000" cx="1089.5" cy="-1.8" rx="1.8" ry="1.8"/>
</g>
<!-- p101&#45;&gt;p102 -->
<g id="edge118" class="edge">
<title>p101&#45;&gt;p102</title>
<path fill="none" stroke="#000000" d="M1089.5,-54.3672C1089.5,-41.7838 1089.5,-25.3818 1089.5,-14.2703"/>
<polygon fill="#000000" stroke="#000000" points="1093.0001,-13.9527 1089.5,-3.9527 1086.0001,-13.9527 1093.0001,-13.9527"/>
<text text-anchor="middle" x="1149" y="-25.4" font-family="Times,serif" font-size="14.00" fill="#000000">pb6_out_RemapGene</text>
</g>
</g>
</svg>
